Junction / Street Location,Site Type,Pedestrian Crossing Available,Eastings,Northings,Latitude,Longitude
Argyle St/Stobcross St/North St/Newton St (Anderston X),Intersection,Yes,258009,665258,55.85953286013749,-4.270174772191561
Broomielaw / North St / Newton St,Intersection,Yes,258007,664945,55.856722210878765,-4.270042754592645
St Vincent St / North St /Newton St,Intersection,Yes,258001,665649,55.86304083134071,-4.270507324158615
Bath St / North St / Berkeley St / Newton St,Intersection,Yes,257962,665922,55.86548028069362,-4.2712730294774275
S'hall St/North St/St Georges Rd/Newton St (Charing X),Intersection,Yes,257957,666015,55.866313743014246,-4.271401609293758
St Georges Rd / Woodlands Rd / North St / M8 on ramp,Intersection,Yes,257969,666156,55.86758315119354,-4.271283934320342
St Georges Rd/Phoenix Rd/Maryhill Rd (St Georges X),Intersection,Yes,258163,666469,55.87045035744548,-4.268350347367788
St Georges Rd / Gladstone St,Pelican,Yes,258214,666552,55.87121052889925,-4.267579450564106
St Vincent St / Elmbank St,Intersection,Yes,258130,665622,55.862836423792466,-4.268433776774219
Bath St / Elmbank St,Intersection,Yes,258154,665888,55.865231591711826,-4.2681898657483845
West Graham St / M8 Off ramp WB,Intersection,No,258299,666270,55.86870378815594,-4.266074672486087
Sauchiehall St / Elmbank St,Intersection,Yes,258159,665973,55.86599617898542,-4.268154533869378
Argyle St / Douglas St / James Watt St / Brown St,Intersection,Yes,258300,665206,55.85915165402338,-4.265502347005502
Waterloo St / Douglas St,Intersection,Yes,258342,665385,55.860771036575905,-4.2649254523842215
Bothwell St / Pitt St,Intersection,Yes,258272,665497,55.86175597554301,-4.266101466247289
St Vincent St / Pitt St,Intersection,Yes,258294,665584,55.862543517728795,-4.265795747915792
St Vincent St / Blythswood St,Pelican,Yes,258448,665542,55.8622117061546,-4.263315309952822
West George St / Blythswood St,Pelican,Yes,258491,665636,55.86306825391107,-4.262677932474702
Bath St / Pitt St,Intersection,Yes,258356,665839,55.86485109693498,-4.26493924579571
Bath St / Blythswood St / Rose St,Intersection,Yes,258537,665795,55.864509240664404,-4.26202656462339
Sauchiehall St / Rose St,Intersection,Yes,258556,665875,55.86523304760095,-4.261764985775732
Renfrew St / Rose St,Intersection,Yes,258576,665955,55.86595714748559,-4.261487431820521
Cowcaddens Rd / West Graham St / Garscube Rd,Intersection,Yes,258651,666192,55.86810691056943,-4.260413645472667
Port Dundas Rd / Milton St,Intersection,Yes,259007,666173,55.868040638150205,-4.254719624201535
Dobbies Loan / Port Dundas Rd,Intersection,No,258974,666389,55.869970207414546,-4.255358967887022
Garscube Rd / Dobbies Loan / Phoenix Rd,Intersection,Yes,258682,666368,55.86969610995072,-4.260010490637264
Broomielaw / Brown St,Toucan,Yes,258306,664953,55.85688202002418,-4.265274332641748
Broomielaw / James Watt St,Intersection,Yes,258379,664956,55.85693040718616,-4.264110676112365
Broomielaw / York St,Intersection,Yes,258459,664946,55.85686412655318,-4.262828495243384
Waterloo St / West Campbell St,Intersection,Yes,258526,665350,55.86051085869747,-4.261969884862824
Bothwell St / West Campbell St,Intersection,Yes,258547,665437,55.861298097880386,-4.261680055552328
Argyle St / York St / West Campbell St,Intersection,Yes,258482,665170,55.858881923829394,-4.262578302843343
St Vincent St / West Campbell St,Intersection,Yes,258567,665518,55.86203117565535,-4.261403047968957
West Campbell St / West George St,Intersection,Yes,258590,665614,55.86289980128304,-4.261085963882368
West Campbell St / West Regent St,Intersection,Yes,258609,665693,55.863614628574744,-4.260823855758732
Bath St / West Campbell St,Intersection,Yes,258628,665772,55.86432945531237,-4.260561738340133
Renfrew St / Cambridge St,Intersection,Yes,258666,665933,55.865786040761996,-4.26003904043125
Cowcaddens Rd / Cambridge St,Intersection,Yes,258729,666097,55.867276888218264,-4.259118712230999
Broomielaw / Robertson St,Intersection,Yes,258567,664921,55.85667138075562,-4.261091558211519
Argyle St / Wellington St / Robertson St,Intersection,Yes,258575,665151,55.85873864150514,-4.261083848041219
Waterloo St / Wellington St,Intersection,Yes,258620,665331,55.860367862875876,-4.260459405945817
Bothwell St / Wellington St,Intersection,Yes,258641,665417,55.86114612088164,-4.2601690254242595
St Vincent St / Wellington St,Intersection,Yes,258660,665495,55.861851968566036,-4.259906389857148
Bath St / Wellington St / Sauchiehall St Centre,Intersection,Yes,258721,665749,55.86415023876443,-4.259064995140694
Renfrew St / Savoy Centre,Pelican,Yes,258749,665916,55.86565775440125,-4.2587050270938
Broomielaw / Oswald St / King George V Bridge,Intersection,Yes,258650,664912,55.85661492617357,-4.259762025840021
Argyle St / Hope St / Oswald St,Intersection,Yes,258666,665132,55.85859475446961,-4.259621329216439
Hope St / Gordon St / Bothwell St / Waterloo St,Intersection,Yes,258732,665358,55.86064310797718,-4.258685571016339
Hope St / St Vincent St,Intersection,Yes,258758,665472,55.861674208553225,-4.258329925080358
Hope St / West George St,Intersection,Yes,258781,665566,55.86252487106913,-4.258011732725325
Hope St / West Regent St,Intersection,Yes,258800,665645,55.863239692307005,-4.257749570289799
Hope St / Bath St,Intersection,Yes,258819,665725,55.86396349088784,-4.257487919538575
Hope St / Sauchiehall St,Intersection,Yes,258839,665807,55.86470553765324,-4.257211336014856
Hope St / Renfrew St,Intersection,Yes,258858,665886,55.86542035719838,-4.256949145203765
Cowcaddens Rd / Hope St,Intersection,Yes,258891,666039,55.86680364087099,-4.2565019623366425
Clyde St / Jamaica St / Broomielaw / Glasgow Bridge,Intersection,Yes,258786,664880,55.85636749519507,-4.257574536150767
Jamaica St / Howard St / Midland St,Intersection,Yes,258807,664968,55.857163702913574,-4.257285167071878
Clyde St / Maxwell St,Intersection,Yes,258989,664780,55.8555291304895,-4.254282269180071
Argyle St / Union St / Jamaica St,Intersection,Yes,258840,665099,55.85834947461998,-4.2568266273318
Renfield St / Gordon St / Union St,Intersection,Yes,258837,665345,55.860557161225465,-4.257002623919431
Union St / Central Station (2nd stream),Pelican,Yes,258839,665288,55.860046006375605,-4.256941011928655
Renfield St / St Vincent St,Intersection,Yes,258860,665447,55.86147964386806,-4.256688576919454
Renfield St / West George St,Intersection,Yes,258883,665541,55.86233030245315,-4.256370350045627
Renfield St / West Regent St,Intersection,Yes,258902,665620,55.863045120457684,-4.256108158577953
Renfield St / Bath St,Intersection,Yes,258921,665700,55.86376891581542,-4.255846478411012
Renfield St / Sauchiehall St,Intersection,Yes,258940,665782,55.86451066643634,-4.25558582995903
Renfield St / Renfrew St,Intersection,Yes,258964,665859,55.865208990424236,-4.255242741989558
West Nile St / Gordon St / Mitchell St,Intersection,Yes,258927,665333,55.86047577885181,-4.255559657152883
St Vincent St / West Nile St,Intersection,Yes,258950,665425,55.86130847895424,-4.255240372322619
West George St / West Nile St / St Georges Place,Intersection,Yes,258972,665519,55.862158841434024,-4.25493807922306
West Nile St / West Regent St,Intersection,Yes,258992,665598,55.86287394922165,-4.2546598979026315
Bath St / West Nile St,Intersection,Yes,259010,665679,55.863606427078565,-4.254414676874589
West Nile St / Sauchiehall St,Intersection,Yes,259030,665760,55.864339489529875,-4.25413751669413
Renfrew St / West Nile St / Killermont St,Intersection,Yes,259049,665839,55.86505430301882,-4.253875271521629
Cowcaddens Rd / Port Dundas Rd,Intersection,Yes,259041,665993,55.86643456194967,-4.254083109149336
Clyde St / Dixon St,Toucan,Yes,258881,664838,55.856018244479166,-4.256036299987596
Clyde St / Dunlop St,Intersection,Yes,259092,664728,55.8550923971976,-4.2526112067604895
Argyle St / Buchanan St /St Enoch Square,Intersection,Yes,258956,665075,55.858167963437126,-4.254962470824279
St Vincent St / Buchanan St,Intersection,Yes,259034,665406,55.86116247570336,-4.253889523284123
West George St / Buchanan St / St Georges Place,Intersection,Yes,259065,665495,55.86197057756775,-4.253440923859355
Cathedral St / Buchanan St / Dundas St,Intersection,Yes,259093,665659,55.863451145132856,-4.253079195516703
Killermont St / Concert Hall / Buchanan Bus Stn,Pelican,Yes,259136,665820,55.864909162905825,-4.252476400613218
Cowcaddens Rd / Caledonian University,Pelican,Yes,259197,665932,55.86593251942435,-4.251560710617491
Osborne St / Dunlop St,Intersection,Yes,259162,664948,55.85708800196987,-4.251608191668489
Argyle St / Queen St / Maxwell St,Intersection,Yes,259096,665044,55.8579305949413,-4.252711591502289
Queen St / Ingram St,Intersection,Yes,259158,665284,55.86010342125626,-4.25184661117401
St Vincent Pl / Queen St / George Square,Intersection,Yes,259180,665371,55.86089093052716,-4.25154061548995
West George St / Queen St / George Square,Intersection,Yes,259201,665461,55.86170508070874,-4.251252130398918
Dobbies Loan / Milton St / Canal St,Intersection,Yes,259270,666253,55.868835762743444,-4.250561942701801
Dobbies Laon / Craighall Rd / M8 Off-Ramp WB,Intersection,Yes,259208,666366,55.86983215465558,-4.251610626228378
George Square / North Hanover St,Intersection,Yes,259278,665442,55.861556989740144,-4.250013029650533
Cathedral St / North Hanover St,Intersection,Yes,259321,665619,55.86315864080241,-4.249418452548074
Cathedral St/ North Frederick St,Intersection,Yes,259392,665604,55.86304469293111,-4.248277175147073
North Hanover St / Killermont St,Intersection,Yes,259357,665771,55.86453379726114,-4.248922610215574
North Hanover St / Cowcaddens Rd,Intersection,Yes,259387,665891,55.86561990645501,-4.2485059228208275
Dobbies Loan / Kyle St / North Hanover St,Intersection,Yes,259435,666058,55.867133229462496,-4.247826205726736
Baird St / North Wallace St / Kyle St,Toucan,Yes,259651,666188,55.86836333170976,-4.24444481193836
George Square / Cochrane St / South Frederick St,Intersection,Yes,259328,665336,55.86061992398808,-4.2491598120053595
George St / North Frederick St / George Square,Intersection,Yes,259348,665424,55.86141582126453,-4.248886204917428
Clyde St / Stockwell St / Bridgegate / Victoria Bridge,Intersection,Yes,259226,664668,55.85459287112646,-4.250441230570125
Stockwell St / Howard St,Intersection,Yes,259252,664768,55.85549825880474,-4.250078149056711
Stockwell St / Osborne St,Intersection,Yes,259280,664878,55.85649400887235,-4.249688317676761
Argyle St / Stockwell St / Trongate / Glassford St,Intersection,Yes,259307,664990,55.857507421746206,-4.249315467316511
Glassford St / Wilson St,Intersection,Yes,259335,665129,55.85876353021042,-4.248940645839769
Ingram St / Glassford St / South Frederick St,Intersection,Yes,259362,665245,55.859812852651686,-4.248569831149771
Ingram St / Montrose St,Pelican,Yes,259556,665205,55.85951030449059,-4.245452212257292
King St / Osborne St,Intersection,Yes,259458,664808,55.85591748272244,-4.246810796405305
Trongate / King St,Intersection,Yes,259496,664938,55.85709569769321,-4.246271620623896
George St / Montrose St,Intersection,Yes,259560,665371,55.861001814277095,-4.2454743686477965
Cathedral St / Montrose St,Intersection,Yes,259590,665589,55.862967754507636,-4.245108392985189
Cathedral St / Taylor St,Pelican,Yes,259744,665593,55.863048512195085,-4.242651899934476
Cathedral St / Stirling Rd,Intersection,Yes,259909,665592,55.86308752877982,-4.240017197967849
Saltmarket / Clyde St / Albert Bridge,Intersection,Yes,259447,664506,55.853202926524816,-4.246829831487235
Saltmarket / Greendyke St / Bridgegate / Steel St,Intersection,Yes,259501,664620,55.85424215759315,-4.246027022996568
Saltmarket / St Andrews St,Toucan,Yes,259579,664774,55.85564749503606,-4.24486181173209
Trongate / High St / London Rd / Gallowgate (Glasgow X),Intersection,Yes,259662,664889,55.856704135894574,-4.243596517991337
Trongate / Albion St / Chisholm St,Intersection,Yes,259564,664917,55.85692697700257,-4.245175308555284
High St / Bell St,Intersection,Yes,259716,664985,55.85758174269241,-4.242784238416667
High St / Ingram St / High St Car Park,Intersection,Yes,259809,665147,55.8590632378177,-4.24138350359092
High St / Duke St / Castle St / George St,Intersection,Yes,259911,665287,55.860349817455585,-4.239827619030197
Castle St / John Knox St / McLeod St,Intersection,Yes,260114,665486,55.862195409040375,-4.236689698645229
Castle St / Cathedral St,Intersection,Yes,260110,665568,55.86293044614712,-4.236795882977954
Castle St / St James Rd,Intersection,Yes,260106,665646,55.8636295709488,-4.236900006777475
Alexandra Pde / Royal Infirmary / Castle St,Intersection,Yes,260267,665940,55.866315826036754,-4.234481241744943
Castle St / M8 Off-Ramp C EB,Intersection,Yes,260178,665806,55.86508695224613,-4.235833081225665
Royston Rd / Castle St / Baird St / Springburn Rd,Intersection,Yes,260279,666217,55.86880622138289,-4.234432501499377
London Rd / Moir St,Intersection,Yes,259801,664705,55.85509263187152,-4.241282633993849
Stirling Rd / Glebe St / M8,Intersection,Yes,260073,665730,55.86437414355933,-4.237470227042371
London Rd / Charlotte St,Intersection,Yes,259857,664653,55.854642058966114,-4.2403619136375355
Baird St / Pinkston Rd / Springburn Rd On/Off,Intersection,Yes,260102,666233,55.868898507103346,-4.237266951210038
West St / Kingston St / Paisley Rd,Intersection,Yes,258354,664672,55.85437334720011,-4.264361358198833
West St / Nelson St / Morrison St,Intersection,Yes,258327,664566,55.85341375904183,-4.264736922421118
Wallace St / Paterson St,Intersection,Yes,258218,664478,55.85259166251242,-4.266430610251277
West St / Cook St / M8 Off ramp,Intersection,Yes,258274,664348,55.85144100611012,-4.265468901911888
Tradeston St / Nelson St,Intersection,Yes,258408,664547,55.853266976753794,-4.2634341968338365
Tradeston St / Wallace St,Intersection,Yes,258381,664439,55.85228943541199,-4.263808729622399
Tradeston St / Cook St,Intersection,Yes,258355,664330,55.85130320886879,-4.264166762266545
Commerce St / Clyde Pl,Intersection,Yes,258642,664721,55.85489780222912,-4.259790140665276
Commerce St / Kingston St,Intersection,Yes,258620,664611,55.853903781934186,-4.260083933099931
Bridge St / Clyde Pl / Carlton Pl,Intersection,Yes,258742,664697,55.85471164632019,-4.258181515651015
Bridge St / Kingston St / Oxford St,Intersection,Yes,258716,664588,55.85372543512379,-4.258539711951883
Bridge St / Nelson St / Eglinton St / Norfolk St,Intersection,Yes,258689,664478,55.85272995186615,-4.258913329979249
Eglinton St / Wallace St,Intersection,Yes,258662,664368,55.851734467485805,-4.2592869295466125
Eglinton St / Cook St / Bedford St,Intersection,Yes,258637,664264,55.85079343582159,-4.259631718958766
Eglinton St / Cumberland St,Intersection,Yes,258584,664045,55.848811732816614,-4.260363390905494
Cumberland St / Salisbury St,Pelican,Yes,258822,663988,55.84836973677755,-4.25653554454955
Norfolk St / Oxford Lane,Pelican,Yes,258872,664429,55.8523436400813,-4.255967085397046
Gorbals St / Ballater St / Norfolk St (Gorbals X),Intersection,Yes,259055,664373,55.851894411618815,-4.253017259505665
Gorbals St / Cleland St,Intersection,Yes,258996,664192,55.85025215231759,-4.253864798944131
Pollokshaws Rd / Cathcart Rd / Gorbals St / Cumberland St,Intersection,Yes,258922,663963,55.84817455778366,-4.254926684464314
Cathcart Rd / Caledonia Rd,Intersection,Yes,258913,663626,55.845146359206076,-4.254895048693974
Hospital St / Cumberland St / Laurieston Rd,Intersection,Yes,258979,663951,55.84808349664795,-4.254010810901159
Hospital St / Cleland St,Intersection,Yes,259105,664138,55.84979920855555,-4.252097175005638
Crown St / Ballater St / Laurieston Rd,Intersection,Yes,259298,664230,55.85068154302086,-4.2490647706838915
Ballater St / Hospital St,Intersection,Yes,259185,664292,55.85120518562548,-4.250900393574943
Ballater St / Commercial St EB,Pelican,Yes,259602,664047,55.84912719175862,-4.244118313079196
Ballater St / Commercial St WB,Pelican,Yes,259600,664036,55.84902785135841,-4.244144537327777
Caledonia Rd / Camden St,Intersection,Yes,259196,663660,55.84553432569827,-4.25039677715427
Ballater St / McNeil St,Intersection,Yes,259859,663869,55.84760387025129,-4.239924875697274
St Vincent St / Elderslie St,Intersection,Yes,257696,665662,55.86306757510123,-4.275383285892203
Finnieston St / Stobcross St / Clydeside Expressway,Intersection,Yes,257331,665402,55.86062543965497,-4.281073402732941
Finnieston St / West Greenhill Pl,Puffin,Yes,257352,665507,55.86157432013503,-4.280793433861897
Argyle St / Finnieston St (Finnieston Cross),Intersection,Yes,257394,665716,55.8634631013693,-4.280232930756854
Finneston St / Stobcross St / Tunnel St,Intersection,Yes,257310,665250,55.85925460399803,-4.281328618035538
Finneston St / Lancefield Quay,Intersection,Yes,257283,665089,55.85780119136952,-4.281674851807156
Castlebank St / Ferry Rd,Intersection,No,255904,666123,55.866673764725206,-4.304236112429619
Castlebank St / Partick Link,Intersection,Yes,255604,666292,55.86810116686288,-4.309115828253146
Castlebank St / Hayburn St / Meadowside St,Intersection,Yes,255498,666274,55.8679077926147,-4.310798629450834
Castlebank St / Harbour Development,Toucan,Yes,255146,666398,55.86891531148268,-4.316484931400094
South St / Smith St / Dilwara Ave,Toucan,Yes,254129,666686,55.871193982512054,-4.332877601391436
Berkeley St / Elderslie St,Intersection,Yes,257661,665899,55.86518497299281,-4.2760665245433005
Sauchiehall St / Elderslie St,Intersection,Yes,257648,665993,55.866025043924154,-4.276323455787022
Sauchiehall St/ Claremont St / N Claremont St,Intersection,Yes,257398,665967,55.86571770158312,-4.280301159102386
Sauchiehall St / Kelvingrove St,Pelican,Yes,257191,665941,55.86542297677761,-4.283592290418343
Argyle St / Kelvingrove St,Pelican,Yes,257159,665862,55.86470425133472,-4.284061534653801
Argyle St / Kelvinhaugh St,Pelican,Yes,257025,665940,55.8653647739515,-4.286241991182279
Sauchiehall St / Radnor St / Kelvin Way,Intersection,Yes,256873,666115,55.86689074783105,-4.288761138105341
Kelvin Way / Art Galleries,Toucan,Yes,256926,666210,55.86775936984807,-4.2879651170516935
Argyle St / Radnor St / Haugh Rd,Intersection,Yes,256836,666053,55.866323138810436,-4.28931911302821
Argyle St / Sauchiehall St,Intersection,Yes,256728,666191,55.867529959135474,-4.291116364606047
Yorkhill St / Old Dumbarton Rd / Dalnair St,Puffin,Yes,256592,666167,55.86727403657714,-4.293275039499605
Argyle St / Bunhouse Rd / Dumbarton Rd / Partick Bridge,Toucan,Yes,256588,666397,55.86933770951828,-4.293460653687552
Dumbarton Rd / Western Infirmary,Pelican,Yes,256443,666475,55.86999478399128,-4.29581716409377
D'ton Rd/Byres Rd/Coopers Well Ln/Partick Br (Partick X),Intersection,Yes,256211,666538,55.8704911904996,-4.299554939558002
Beith St / Partick Link,Intersection,Yes,255598,666413,55.86918565431276,-4.30927611907568
Beith St / Hayburn St / Meadow Rd,Intersection,Yes,255497,666391,55.86895786688944,-4.310877000528364
Dumbarton Rd / Hyndland St / Keith St,Pelican,Yes,256045,666582,55.87083663355387,-4.3022288664361605
Hyndland St / Chancellor St,Pelican,Yes,256045,666726,55.87212940893097,-4.302305396534743
Dumbarton Rd / Stewartville St,Pelican,Yes,255872,666585,55.8708118427785,-4.304992795659233
Dumbarton Rd / Merkland St / Vine St,Intersection,Yes,255611,666590,55.870778579494974,-4.309162896971923
Dumbarton Rd / Crow Rd / Rosevale St,Intersection,Yes,255391,666593,55.8707395279958,-4.312677267965675
Crow Rd/ Retail Park,Puffin,Yes,255341,666821,55.872771395636285,-4.3135973897749125
Dumbarton Rd / Exeter Dr / Meadow Rd,Pelican,Yes,255176,666596,55.87070187921128,-4.316111793867614
Dumbarton Rd / Thornwood Ave,Pelican,Yes,255014,666600,55.87068906467659,-4.318700594126673
Clyde Tunnel North Portal / Balshagray Ave,Intersection,No,254319,666749,55.87181705106364,-4.3298777356756615
Dumbarton Rd / Glendore St / Smith St / Squire St,Toucan,Yes,254137,666906,55.87317143528923,-4.332868338978432
Clydeside Expressway / Victoria Park Dr Sth / Westland Dr,Intersection,Yes,253681,667301,55.87657920828767,-4.340363075494603
Dumbarton Rd / Primrose St / Westland Dr,Toucan,Yes,253553,667196,55.87559768787873,-4.342350345280872
Dumbarton Rd / Henrietta St E/B,Pelican,Yes,253362,667370,55.87710163650769,-4.3454945987287825
Dumbarton Rd / Henrietta St W/B,Pelican,Yes,253346,667365,55.87705187867561,-4.345747400274255
Dumbarton Rd / Dunglass Ave / Ormiston Ave / Harland St,Pelican,Yes,253171,667502,55.87822845566043,-4.348616318382698
Danes Dr / Duncan Ave / Scotstoun St Showground,Toucan,Yes,253545,667742,55.88049688354149,-4.342773428177931
Dumbarton Rd / Queen Victoria Dr / Balmoral St,Intersection,Yes,252982,667642,55.879427622579996,-4.351710621462164
Queen Victoria Dr / Danes Dr,Intersection,Yes,253090,667971,55.88241410531696,-4.350164376221052
Dumbarton Rd / Burnham Rd,Intersection,Yes,252254,668051,55.88287652794572,-4.36356008909061
Dumbarton Rd / Dyke Rd,Pelican,Yes,251748,668340,55.885315417283145,-4.371799931689102
Dumbarton Rd / Bulldale St,Intersection,Yes,251523,668519,55.88685299658287,-4.375491924760478
Dumbarton Rd / Kelso St / Yoker Ferry Rd,Intersection,Yes,251351,668658,55.88804774427409,-4.378315633404986
Dumbarton Rd / Rothesay Dock,Intersection,Yes,251267,668724,55.888614291196774,-4.37969368127343
Dumbarton Rd / Hawick St / Greenlaw Rd,Pelican,Yes,251060,668894,55.89007640260997,-4.383093805576378
Cairntoul Dr / Kirkton Ave,Toucan,Yes,252375,668567,55.887545874063015,-4.3619089943851765
Kelso St / Halley St,Toucan,Yes,251653,669050,55.891659918960336,-4.3737065631721235
Congress Rd / Congress Way,Intersection,No,257142,665205,55.85880084008557,-4.283986641232925
Congress Way / Stobcross Rd (Tunnel St),Intersection,Yes,257165,665285,55.85952587592919,-4.283661656294142
Congress Way / Pointhouse Rd / Stobcross Rd,Intersection,No,257191,665398,55.86054806536236,-4.28330615667307
Great Western Rd/Carrington St/Rupert St/Burnbank Terr,Pelican,Yes,257948,666670,55.87219154975737,-4.2718887617266
Great Western Rd / Napiershall St / Woodlands Dr,Intersection,Yes,257772,666779,55.87311819827249,-4.274756392764969
Great Western Rd / Park Rd,Intersection,Yes,257572,666903,55.87417234949671,-4.278015300513768
Park Rd / West Prince's St,Toucan,Yes,257511,666804,55.87326551243993,-4.278937316761418
Great Western Rd / Caledonian Cres,Pelican,Yes,257426,666994,55.87494613364744,-4.280394666449755
Great Western Rd / Bank St / Belmont St,Intersection,Yes,257309,667068,55.875575841220325,-4.282302052980078
Great Western Rd /Ruskin Pl / Hillhead St,Pelican,Yes,257120,667175,55.876480430835,-4.285376729125621
Great Western Rd / Cecil St,Pelican,Yes,256996,667246,55.877081048386685,-4.28739447580713
Great Western Rd / Queen Margaret Dr / Byres Rd,Intersection,Yes,256839,667343,55.877905244330286,-4.289953048595498
Great Western Rd / Kirklee Rd / Horselethill Rd,Intersection,Yes,256379,667644,55.88047056349335,-4.297459033542473
Great Western Rd / Hyndland Rd / Cleveden Rd,Intersection,Yes,256017,667882,55.88249913906661,-4.303367207211748
Cleveden Rd / Cleveden High School,Pelican,Yes,255909,668395,55.88707232883683,-4.3053653112089405
Kelvindale Rd / Ferngrove Ave / Cleveden School,Toucan,Yes,255958,668498,55.88801167985704,-4.304637418821254
Cleveden Rd / KelvindaleRd / Baronald Gate / Ashburton Rd,Pelican,Yes,255847,668515,55.888131077316345,-4.306419620121051
Great Western Rd / Shelley Rd / Leicester Ave,Intersection,Yes,255616,668132,55.884623463190046,-4.309905333670914
Great Western Rd / Dorchester Ave / Cranborne Rd,Intersection,Yes,255144,668470,55.887516096972405,-4.317625403346636
Great Western Rd / Ascot Ave / Fifth Ave,Intersection,Yes,254930,668601,55.88862771396453,-4.3211140533658945
Great Western Rd / Herschell St,Intersection,Yes,254839,668671,55.8892287075864,-4.322605273660729
Woodlands Rd / Willowbank Cres,Pelican,Yes,257621,666565,55.8711523511851,-4.277055141578733
Eldon St / Park Rd,Toucan,Yes,257395,666679,55.872108969559136,-4.280723848672302
Gibson St / Otago St,Pelican,Yes,257293,666720,55.872446852102826,-4.282374188467916
Woodlands Rd / Lyndoch St / Ashley Lane,Intersection,Yes,257857,666274,55.868609503037774,-4.27313406603429
Bank St / Gibson St / University Ave,Intersection,Yes,257177,666773,55.87288829441039,-4.284254440145655
University Ave / Hillhead St / South Park Ave,Pelican,Yes,256873,666735,55.87245691768581,-4.289088712128945
University Ave / University Place,Pelican,Yes,256680,666786,55.87285739948637,-4.2921975330407625
Byres Rd / Church St,Intersection,Yes,256374,666741,55.872362271747775,-4.297059928622351
Byres Rd / Highburgh Rd / University Ave,Intersection,Yes,256506,666926,55.87406247288904,-4.2950501724904475
Byres Rd / Ruthven St / Great George St,Puffin,Yes,256618,667094,55.87560406916979,-4.293350628296156
Byres Rd / Cresswell St / Observatory Rd / Vinnicombe St,Pelican,Yes,256726,667243,55.87697387731647,-4.291704776731323
Highburgh Rd / Dowanhill St / Elie St / Beaumont Gate,Toucan,Yes,256225,666984,55.87449938851764,-4.299568149189148
Hyndland Rd / Turnberry Rd,Pelican,Yes,255841,667153,55.87590183485519,-4.305790111319072
Hyndland Rd / Clarence Dr,Intersection,Yes,255812,667271,55.87695250860157,-4.30631605428193
Hyndland Rd / Hughenden Lane,Pelican,Yes,255892,667603,55.87995700623395,-4.30521518441696
Clarence Dr / Dudley Dr,Pelican,Yes,255432,667365,55.8776824933968,-4.312434718860283
Clarence Dr / Lauderdale Gardens,Pelican,Yes,255669,667306,55.87722389457901,-4.3086183791575445
Crow Rd/Churchill Dr/Broomhill Dr/Clarence Dr(Br'mhill X),Intersection,Yes,254985,667160,55.87570773462367,-4.3194634761345245
Crow Rd / Marlborough Ave / Victoria Park Gardens Sth,Intersection,Yes,254807,667397,55.87778177512843,-4.322433046263541
Balshagray Ave/Victoria Park Dr N/Victoria Park Gdns S,Intersection,No,254526,667285,55.87669151353628,-4.326860401231266
Balshagray Ave / Essex Dr NB,Pelican,Yes,254546,667393,55.877667117444304,-4.326599028768598
Balshagray Ave / Essex Dr SB,Pelican,Yes,254555,667394,55.877678812678084,-4.32645583774513
Crow Rd / Balshagray Ave / Abbey Dr / Beechwood Dr,Intersection,Yes,254600,667707,55.88050233982232,-4.325905291716926
Crow/ Rd / Randolph Rd NB,Puffin,Yes,254577,667845,55.88173428219735,-4.32634675745718
Crow Rd / Randolph Rd SB,Puffin,Yes,254588,667848,55.881764536035426,-4.3261726828136755
Crow Rd /Southbrae Dr,Intersection,Yes,254609,668039,55.88348556760641,-4.325939873956785
Southbrae Dr / Chamberlain Rd / Westbrae Dr,Toucan,Yes,254165,668013,55.88311789835441,-4.333017489132321
Crow Rd / Whittinghame Dr,Intersection,Yes,254633,668251,55.885396030355324,-4.3256704076964025
Bearsden Rd / Sutcliffe Rd,Intersection,Yes,254743,669083,55.89289845801749,-4.324360045667858
Anniesland Rd / Great Western Rd,Intersection,Yes,254570,668854,55.89079039529698,-4.327000794589231
Anniesland Rd / Crow Rd,Intersection,Yes,254541,668790,55.89020707914929,-4.327429665046804
Crow Rd / Anniesland Rd,Intersection,Yes,254625,668735,55.88973869283741,-4.3260582164533306
Anniesland Cross NE/Bearsden Rd/Great Western Rd/Crow Rd,Intersection,Yes,254624,668808,55.89039374316006,-4.326113416318795
Great Western Rd / Munro Pl EB,Pelican,Yes,254409,668981,55.89188186323137,-4.3296411419827505
Great Western Rd / Munro Pl WB,Pelican,Yes,254409,668956,55.891657428145116,-4.32962768743351
Bearsden Rd / Fulton St,Intersection,Yes,254811,669184,55.893825693751836,-4.323327883652275
Fulton St / Tambowie St / Woodhouse St / Blackwood St,Pelican,Yes,254348,669433,55.89592119287924,-4.330859045743974
Fulton St / Spencer St,Intersection,Yes,254623,669287,55.89469362720981,-4.326386814624893
Fulton St / Knightscliffe Ave,Intersection,Yes,254062,669453,55.896014110927716,-4.335439317622642
Great Western Rd /Archerhill Rd/Fulton St (Knightswood X),Intersection,Yes,253734,669299,55.894532042203195,-4.340596551151898
Great Western Rd EB / Knightscliffe Ave / Warden Rd,Puffin,Yes,254127,254127,52.1660773313474,-4.134240188467853
Great Western Rd WB / Knightscliffe Ave / Warden Rd,Puffin,Yes,254122,254122,52.16603108803764,-4.1343110885883885
Bearsden Rd / Ilay Ave / Switchback Rd,Intersection,Yes,255017,669716,55.898663790334865,-4.320321924117323
Maryhill Rd / Great Western Rd,Toucan,Yes,258131,666585,55.87148236211853,-4.268922061727992
Maryhill Rd / Cromwell St / Clarendon St,Pelican,Yes,258112,666726,55.8727426381211,-4.269299315746124
Maryhill Rd / North Woodside Rd / Hopehill Rd,Pelican,Yes,258030,666951,55.87473848447691,-4.270726672998835
Maryhill Rd / Raeberry St / Trossachs St / Wilson St,Pelican,Yes,257997,667243,55.87735027311041,-4.271406785347455
Maryhill Rd / Garscube Rd (Queens X),Intersection,Yes,257949,667543,55.88002945436028,-4.272330761638724
Maryhill Rd / Braeside St / Dunard St,Pelican,Yes,257793,667631,55.880773459601826,-4.274868519623332
Garscube Rd / Firhill Rd,Intersection,Yes,258154,667397,55.87877911728985,-4.268980127559917
Maryhill Rd / Fire Station / Kelvinside Ave,Intersection,Yes,257544,667806,55.882270973355666,-4.278937547956023
Maryhill Rd / Bilsland Dr / Queen Margaret Dr,Intersection,Yes,257438,668044,55.88437630336264,-4.280755960152698
Queen Margaret Dr / Clouston St,Pelican,Yes,257203,667636,55.88064376869845,-4.28429437990454
Maryhill Rd / Avenue Park St / East Park Home,Pelican,Yes,257298,668209,55.88581615604981,-4.283079189565081
Maryhill Rd / Garrioch Rd / Craigmont Dr,Intersection,Yes,257096,668449,55.88791089145417,-4.286432600004549
Garrioch Rd / Garrioch Gate,Pelican,Yes,256991,668367,55.887143545719375,-4.288066578607982
Maryhill Rd / Gairbraid Ave / Lochburn Rd,Pelican,Yes,256892,668752,55.89057052963631,-4.289851647748819
Maryhill Rd / Sandbank St,Pelican,Yes,256606,668949,55.892254019854974,-4.294525052158839
Maryhill Rd / Bantaskin St / Skaethorn Rd,Intersection,Yes,256434,669155,55.89405214137232,-4.297382279845356
Maryhill Rd / Shiskine Dr,Intersection,Yes,256322,669437,55.89655040465991,-4.299321494460775
Maryhill Rd / Cragieburn Gdns / Dawsholm Rd,Intersection,Yes,256122,669751,55.89930961623964,-4.302684128319271
Maryhill Rd / Acre Rd NB,Toucan,Yes,255631,670196,55.90315756953596,-4.310767383718071
Maryhil/ Rd / Acre Rd SB,Toucan,Yes,255634,670212,55.90330210969973,-4.310727987108484
Garscube Rd / Possil Rd / St Georges Rd (Garscube X),Intersection,Yes,258585,666900,55.87444386929505,-4.261837077592148
St Georges Rd / North Woodside Rd,Toucan,Yes,258379,666793,55.87342272063801,-4.265070772376502
Possil Rd / Dawson Rd,Pelican,Yes,258833,667209,55.877290776039985,-4.258037796306337
Anniesland Rd / Safeway,Pelican,Yes,252488,668344,55.88557858765978,-4.359982436160853
Anniesland Rd / Lincoln Ave / Queen Victoria Dr,Intersection,Yes,253062,668320,55.88553863351053,-4.3508010452885975
Alderman Rd / Yokermill Rd / Duntreath Ave,Intersection,Yes,251561,669523,55.89587773201087,-4.3754358287857995
Lincoln Ave / Alderman Rd,Intersection,Yes,253006,668729,55.88919324421814,-4.351917692155743
Alderman Rd / Dyke Rd,Intersection,Yes,252141,669184,55.89301298845584,-4.365983965792439
Lincoln Ave / Archerhill Rd,Intersection,Yes,253195,669295,55.8943320509421,-4.349205703538115
Anniesland Rd / Craigend St E/B,Puffin,Yes,254149,668785,55.89004359507041,-4.3336891214567785
Anniesland Rd / Craigend St W/B,Puffin,Yes,254157,668777,55.88997419955073,-4.333557010637322
Anniesland Rd / Knightswood Rd,Intersection,Yes,253866,668734,55.88949993253572,-4.338182431264976
Great Western Rd EB / Blairdardie Rd / Chaplet Ave,Pelican,Yes,253196,669973,55.900418944142146,-4.349557781653335
Great Western Rd WB / Blairdardie Rd / Chaplet Ave,Pelican,Yes,253188,669948,55.90019207215469,-4.349672038107339
Great Western Rd EB / Keal Ave,Pelican,Yes,252618,670035,55.9007988687274,-4.3588273193087455
Great Western Rd WB / Keal Ave,Pelican,Yes,252628,670013,55.90060443262375,-4.358655538533979
Great Western Rd EB / Sunnyside Dr,Pelican,Yes,252380,670014,55.90053740207349,-4.362618830505196
Great Western Rd WB / Sunnyside Dr,Pelican,Yes,252388,669992,55.90034235797266,-4.3624789894993174
Great Western Rd EB / Garscadden Rd,Pelican,Yes,252000,670009,55.900375805646526,-4.368688007525362
Great Western Rd WB / Garscadden Rd,Pelican,Yes,252013,669986,55.900173329072075,-4.368467696701676
Drumchapel Rd / Kinfauns Dr,Intersection,Yes,253232,670863,55.90841968526696,-4.349465778246531
Drumchapel Rd / Glenkirk Dr,Pelican,Yes,252901,670689,55.90675656023749,-4.354661153209469
Drumchapel Rd / Garscadden Rd,Pelican,Yes,252360,670660,55.906330519472334,-4.363291219124372
Drumry Rd E / Dunkenny Rd,Pelican,Yes,251530,670937,55.908561772521765,-4.376707640174548
Kinfauns Dr / Drumry Rd E,Pelican,Yes,251869,671013,55.90934852802172,-4.3713314126600915
Kinfauns Dr / St Marks Church,Toucan,Yes,252056,671851,55.91692889730836,-4.368801614644608
Kinfauns Dr / Hecla Ave,Pelican,Yes,251844,671182,55.91085796062129,-4.371823630820743
Kinfauns Dr / Northmuir Rd,Puffin,Yes,252834,671476,55.91380113401797,-4.356160535504056
Drumchapel Rd / Blairdardie Rd,Intersection,Yes,252790,670532,55.905313189387314,-4.3563495796852765
Garscadden Rd / Donald Dewar Centre,Puffin,Yes,251951,670926,55.90859275969456,-4.369973199552623
Great Western Rd / Allerdyce Rd / Goodyear Site,Intersection,Yes,251366,670337,55.90312489670183,-4.378998726532523
Duntreath Ave / Goodyear Site,Intersection,Yes,251861,670395,55.903798208522915,-4.371120543396332
Achamore Rd / Lochgoin Ave / Katewell Ave/Fettercairn Ave,Toucan,Yes,251400,671794,55.91621497344816,-4.379256643891802
Dalsetter Ave / Duntreath Ave,Intersection,Yes,251914,670690,55.90646277283349,-4.370435219734518
Great Western Rd / Edrington Group Site,Intersection,Yes,251090,670690,55.90620846251738,-4.383603561405033
Craighall Rd / North Canalbank St / Dundashill,Intersection,Yes,259015,666529,55.871239113788604,-4.254777169762254
Saracen St/Possil Rd/Keppochill Rd/Craighall St(Possil X),Intersection,Yes,259054,667279,55.87798395132809,-4.254544768484254
Saracen St / Killearn St,Pelican,Yes,259075,667630,55.88114133717941,-4.254392096559549
Saracen St / Allander St,Pelican,Yes,259085,667783,55.882517880718495,-4.254312026362262
Saracen St / Balmore Rd / Bardowie St (Saracen X),Pelican,Yes,259086,667928,55.88381996720301,-4.254371545016516
Balmore Rd / Stronend St / Closeburn St,Intersection,Yes,258962,668085,55.885193190397615,-4.256434028241306
Balmore Rd / Hawthorn St / Bilsland Dr,Intersection,Yes,258917,668249,55.886652377525955,-4.257238343458096
Balmore Rd / Broadholm St,Pelican,Yes,258814,668717,55.890823820106604,-4.259127900825417
Balmore Rd / Ashgill Rd / Hillend Rd,Intersection,Yes,258742,669005,55.89338831610699,-4.260428560463189
Hawthorn St /Ashfield St,Intersection,Yes,259402,668215,55.88648899931804,-4.249473126503492
Hawthorn St / Finlas St / Walnut Rd,Intersection,Yes,259837,668261,55.887028814349364,-4.242548114178765
Keppochhill Rd / Carlisle St,Intersection,Yes,259811,667262,55.8780522613985,-4.242446037986865
Balmore Rd / Knapdale St,Pelican,Yes,258539,669264,55.895653955555936,-4.263807346719433
Balmore Rd / Skirsa St,Intersection,Yes,258407,669481,55.897563324304095,-4.266030041896472
Bilsland Dr / Arnold St,Toucan,Yes,258411,668502,55.888775231347054,-4.265453668421398
Springburn Rd / Fountainwell Rd,Intersection,Yes,260406,666831,55.87435555095704,-4.2327211104166835
Springburn Rd / St Rollox Rd,Intersection,Yes,260414,666919,55.87514793630216,-4.232638714512082
Springburn Rd / Petershill Rd,Intersection,Yes,260452,667157,55.87729571924846,-4.232154517768357
Petershill Rd / Cobden Rd / Tesco,Intersection,Yes,260933,667125,55.87714754305059,-4.2244561445111035
Petershill Rd / Edgefauld Rd,Pelican,Yes,261125,667145,55.87738250390849,-4.221400019908184
Springburn Rd / Keppochhill Rd / Flemington St,Intersection,Yes,260359,667473,55.88010581998794,-4.233802779094468
Springburn Rd / Atlas St / Springburn Stn,Pelican,Yes,260572,667697,55.88217861442248,-4.230516150830892
Hawthorn St / Memel St,Pelican,Yes,260159,668226,55.88680821644031,-4.237386197509997
Hawthorn St / Springburn Expressway NB,Intersection,Yes,260431,668131,55.88603422933338,-4.232992112718687
Atlas Rd / Wellfield st / Barcaple St,Intersection,Yes,260804,667775,55.88294601997382,-4.226850585973213
Hawthorn St / Balgrayhill Rd,Intersection,Yes,260741,668014,55.88507355863502,-4.227979865974835
Balgrayhill Rd / Stobhill Hospital,Intersection,Yes,260762,669157,55.89534153188354,-4.228232684838268
Springburn Rd / Cairn St,Pelican,Yes,260502,668884,55.89281525134237,-4.232246191388531
Springburn Rd / Everard Dr,Pelican,Yes,260555,669095,55.894724968609495,-4.231508188332919
Springburn Rd / Colston Rd,Intersection,Yes,260560,669300,55.89656690932909,-4.231533996275989
Wallacewell Rd EB / Lamont Rd / Wallacewell Quadrant,Pelican,Yes,262255,668615,55.89090495282999,-4.2041009658152255
Wallacewell Rd WB / Lamont Rd / Wallacewell Quadrant,Pelican,Yes,262263,668611,55.89087132914464,-4.203971116510438
Standburn Rd / Wallacewell Primary School,Puffin,Yes,262799,668838,55.89306245267111,-4.1955227688390595
Royston Rd / Glenbar St / Gadshill St,Pelican,Yes,260508,666278,55.86942023850406,-4.230807418903898
Royston Rd / Provanhill Pl,Pelican,Yes,260687,666332,55.869956847430586,-4.22797700727804
Royston Rd / Tharsis St / Garnock St,Toucan,Yes,260896,666387,55.870511033063764,-4.224667990116758
Royston Rd / Blochairn Rd,Intersection,Yes,261197,666470,55.87134303370193,-4.219904144624746
Royston Rd / Darnick St,Intersection,Yes,261479,666612,55.872699098831355,-4.215473673269695
Royston Rd / Stroma St,Pelican,Yes,261838,666706,55.87364614598089,-4.209788742337602
Royston Rd / Broomfield Rd,Intersection,Yes,262252,666966,55.876099047388266,-4.203309627262393
Royston Rd / Provanmill Rd,Intersection,Yes,262843,667209,55.878449423053084,-4.193994101638256
Royston Rd / Robroyston Rd / Langdale St,Intersection,Yes,263030,667246,55.878834838463355,-4.191026130852323
Provanmill Rd / Langdale St / Moodiesburn St,Pelican,Yes,263040,666961,55.87627887155532,-4.190722243759466
Robroyston Rd NB / Asda,Pelican,Yes,263229,668668,55.89165851908115,-4.188566431800866
Robroyston Rd SB / Asda,Pelican,Yes,263241,668672,55.89169784156578,-4.18837672931447
Saugh Rd EB / Asda,Toucan,Yes,263417,668450,55.88975462981579,-4.185452673809999
Saugh Rd WB / Asda,Toucan,Yes,263423,668442,55.88968450569163,-4.185352777269966
Darnick St / Blind Tunnel / Railway Br,Intersection,No,261615,666922,55.87552141435912,-4.213460299480744
Blochairn Link / M8 Off Ramp EB / Viewpark Ave,Intersection,No,261387,666032,55.86746531517356,-4.2166460250933095
Cumbernauld Rd / Dinart St / Smithycroft Rd,Puffin,Yes,262903,665998,55.867593811079814,-4.192422776402667
Cumbernauld Rd / Ness St / Tweed Cres,Puffin,Yes,263039,666171,55.86918573630496,-4.190338706045238
Cumbernauld Rd / Naver St / Tay Cres,Puffin,Yes,263255,666451,55.871761021772045,-4.187031006124643
Cumbernauld Rd / M8 Off-Ramp C WB / M8 On-Ramp WB,Intersection,Yes,263371,666607,55.87319455444589,-4.185257308989299
Cumbernauld Rd / Gartloch Rd / M8 Off-Ramp EB,Intersection,Yes,263451,666711,55.87415098506701,-4.184032185534935
Cumbernauld Rd / Hogganfield Loch,Pelican,Yes,263797,667206,55.8786932327064,-4.178755575927308
Cumbernauld Rd / Avenue End Rd / Station Rd,Intersection,Yes,264719,667723,55.88359495641546,-4.164287804152326
Alexandra Parade / Wishart St,Intersection,Yes,260615,665873,55.86581508946669,-4.228890532501239
Alexandra Parade / Millburn St / Townmill Rd / Hanson St,Pelican,Yes,260793,665783,55.865058519065876,-4.226002338787526
Alexandra Parade / Craigpark / Milnbank St,Pelican,Yes,261063,665689,55.86429250221254,-4.221643381565538
Alexandra Parade / Armadale St,Toucan,Yes,261403,665589,55.863492598542514,-4.216163958619356
Alexandra Parade / Meadowpark St,Pelican,Yes,261547,665562,55.86329158290756,-4.213851171817961
Alexandra Parade / Alexandra Park St,Intersection,Yes,261729,665529,55.8630475594476,-4.210928672884089
Cumbernauld Rd / Alexandra Park St,Intersection,Yes,261716,665385,55.861750970721744,-4.2110627424641365
Cumbernauld Rd / Alexandra Parade / Appin Rd,Intersection,Yes,261916,665498,55.86282285539906,-4.20792740284928
Blochairn Link Rd / Coventry Dr,Intersection,Yes,261648,665801,55.86546637433398,-4.212360716326463
Cumbernauld Rd / Aberdour St,Pelican,Yes,262151,665464,55.8625848761091,-4.2041583213535105
Cumbernauld Rd / Edinburgh Rd / Todd St,Intersection,Yes,262453,665437,55.862428756846946,-4.199323186611356
Cumbernauld Rd / Provan Rd,Intersection,Yes,262532,665544,55.86341197294511,-4.198116231895342
Provan Rd / Gadie St,Pelican,Yes,262502,665876,55.8663841944629,-4.1987636614027695
Cumbernauld Rd / Dee St / Warriston St,Puffin,Yes,262650,665692,55.86477440466996,-4.196307332972062
Edinburgh Rd / Carntynehall Rd / Gartcraig Rd,Intersection,Yes,263527,665456,55.8629046987158,-4.1821862350177295
Edinburgh Rd / Ruchazie Rd,Intersection,Yes,263843,665458,55.863012044677916,-4.177142182609723
Carntyne Rd / Glencorse St /Murrayfield St,Intersection,Yes,263031,665133,55.859863980012776,-4.189941766529885
Carntyne Rd / St Andrew's School,Pelican,Yes,264424,665309,55.861838069098184,-4.1677916824416705
Edinburgh Rd EB / Cardowan Rd,Pelican,Yes,264340,665402,55.86264942425104,-4.169179298473885
Edinburgh Rd WB / Cardowan Rd,Pelican,Yes,264343,665381,55.86246172165511,-4.169120890311575
Edinburgh Rd EB / Carntyne Rd,Pelican,Yes,264692,665361,55.862380272579614,-4.163539003619748
Edinburgh Rd WB / Carntyne Rd,Pelican,Yes,264692,665340,55.86219172473896,-4.163528518728116
Edinburgh Rd / Stepps Rd / Springboig Rd,Intersection,Yes,265231,665341,55.862351744047665,-4.15492371540284
Edinburgh Rd EB / Bartiebeith Rd / Queenslie Ind Est,Pelican,Yes,265601,665330,55.86235631482723,-4.149011047596384
Edinburgh Rd WB / Bartiebeith Rd / Queenslie Ind Est,Pelican,Yes,265603,665312,55.86219525863947,-4.148970190088318
Edinburgh Rd EB / Dunan Pl,Pelican,Yes,266336,665109,55.86057647081221,-4.137167368323937
Edinburgh Rd WB / Dunan Pl,Pelican,Yes,266333,665090,55.860405044831424,-4.137205892507639
Edinburgh Rd / Hallhill Rd / Wellhouse Rd,Intersection,Yes,266758,664904,55.85885270462074,-4.130329403509579
Hallhill Rd / Barlanark Rd,Puffin,Yes,266531,664811,55.85795487940679,-4.1339074803312705
Edinburgh Rd / Barrachnie Rd,Intersection,Yes,267328,664651,55.856738336420946,-4.121105933820364
Stepps Rd / Bellrock St / Blairtummock Rd,Intersection,Yes,265218,665826,55.86670268764106,-4.155372510360202
Stepps Rd / M8 On-Ramp WB / M8 Off-Ramp WB,Intersection,Yes,265162,666056,55.86875207477577,-4.156381146682322
Stepps Rd / M8 On-Ramp EB / M8 Off-Ramp EB,Intersection,Yes,265081,666221,55.870210849262556,-4.157756735563851
Stepps Rd / Avenue End Rd / Gartloch Rd / Borthwick St,Intersection,Yes,265009,666351,55.87135788244535,-4.158971262020873
Gartloch Rd / Avenue End Rd / Stepps Rd,Intersection,Yes,264917,666541,55.87303800306936,-4.160535177449844
Gartloch Rd / Hallforest St,Pelican,Yes,264686,666521,55.87279359970743,-4.164214180655945
Avenue End Rd / Gilbertfield St,Pelican,Yes,264853,666804,55.87538138698112,-4.161688491995856
Gartloch Rd / Coxton Pl,Puffin,Yes,266082,666363,55.87176511040462,-4.1418422539957245
Auchinlea Way EB / Provan Hall,Toucan,Yes,266553,666283,55.87117752865281,-4.134281225493521
Auchinlea Way WB / Provan Hall,Toucan,Yes,266556,666273,55.871088573415385,-4.134228390964413
Bartiebeith Rd/Wellhouse Rd/M8 Off-Ramp WB/M8 On-Ramp WB,Intersection,Yes,266710,665687,55.865869721228854,-4.131480799725085
Bartiebeith Rd/Westerhouse Rd/M8 OffRamp EB/M8 On-Ramp EB,Intersection,Yes,266899,665789,55.866837792854355,-4.128513127485945
Westerhouse Rd / Auchinlea Rd,Intersection,Yes,267185,665976,55.86859573272491,-4.1240380892308
Westerhouse Rd / Auchinlea Park,Toucan,Yes,267036,665849,55.86741434119302,-4.126355024521949
Duke St / John Knox St,Intersection,Yes,260283,665185,55.85954204315594,-4.233836541552781
Duke St / Ark Lane / Sydney St,Pelican,Yes,260521,665118,55.85900944791907,-4.230002770735054
Duke St / Bellgrove St / Westercraigs (Kings X),Intersection,Yes,260890,665023,55.85826317254064,-4.224063572719581
Duke St / Thomson St / Sword St / Craigpark,Pelican,Yes,261069,665026,55.858341736766064,-4.221207733319552
Duke St / Whitehill St / Garfield St,Pelican,Yes,261218,665029,55.85841159746635,-4.2188307735154025
Duke St / Armadale St / Whitevale St,Puffin,Yes,261392,665028,55.85845268987518,-4.216052679977082
Duke St / Cumbernauld Rd / Millerston St,Intersection,Yes,261551,665011,55.858345760246465,-4.213505854950718
Duke St / Aitken St / Fleming St,Pelican,Yes,261940,664964,55.858035368358514,-4.207272242022339
Carntyne Rd / Todd St,Intersection,No,262402,664894,55.857539005478436,-4.199861746424166
Duke St / Carntyne Rd,Pelican,Yes,262208,664907,55.857600300756424,-4.202965158511061
Parkhead Bypass / Duke St West,Intersection,Yes,262440,664651,55.8553681339956,-4.199131857895968
Parkhead Bypass / Duke St East,Intersection,Yes,262546,664592,55.85486865400281,-4.197409967746614
Shettleston Rd / Rigby St / Hart St,Intersection,Yes,263098,664394,55.85324803303175,-4.188499003097536
Shettleston Rd / Westmuir St / Old Shettleston Rd West,Intersection,Yes,263292,664354,55.85294395426958,-4.185382339631391
Westmuir St / Beardmore Park,Puffin,Yes,263185,664297,55.85240183322522,-4.187061429189119
Old Shettleston Rd / Carntynehall Rd / Fernan St,Intersection,Yes,263770,664400,55.85349227817248,-4.17777595953146
Old Shettleston Rd / Duror St / Vesalius St,Pelican,Yes,264136,664357,55.8532094990353,-4.171912481339171
Shettleston Rd / Blair St / Cree St,Pelican,Yes,263594,664294,55.852490799938444,-4.180531860239435
Shettleston Rd / Fernan St,Pelican,Yes,263783,664260,55.85223897592186,-4.177498133382408
Shettleston Rd / Wellshot Rd / Darleith St,Intersection,Yes,263968,664224,55.851967991242034,-4.174527284378861
Shettleston Rd / Kenmore St,Pelican,Yes,264085,664205,55.85183040136869,-4.172650331794709
Shettleston Rd / Chester St,Intersection,Yes,264288,664183,55.851690064835616,-4.169399256271694
Shettleston Rd / Amulree St / McNair St,Pelican,Yes,264481,664165,55.85158274509141,-4.166309809273734
Shettleston Rd / Gartocher Rd,Intersection,Yes,265194,664033,55.85059748232753,-4.1548640348136106
Old Shettleston Rd / McNair St,Pelican,Yes,264524,664265,55.85249267792644,-4.165673449985676
Old Shettleston Rd / Tesco Link Rd,Intersection,Yes,264642,664231,55.85222055648359,-4.163773051466437
Tesco Link Rd / Annick St,Intersection,Yes,264751,664238,55.8523139987611,-4.162036776702238
Hallhill Rd / Greenfield Rd / Gartocher Rd,Puffin,Yes,265160,664541,55.85514906715431,-4.155659301859345
Springboig Rd / Windsor St,Puffin,Yes,265240,664603,55.8557281086181,-4.154413123712113
Mansionhouse Dr / Albany Ave / Albany Quadrant,Puffin,Yes,265275,664581,55.85554036481564,-4.153843497552558
Hallhill Rd / Tesco Link Rd,Intersection,Yes,264855,664234,55.85230725139656,-4.160374817210857
Shettleston Rd / Killin St / Hallhill Rd,Intersection,Yes,264846,664139,55.85145177056963,-4.160471121529434
Shettleston Rd / Academy St / Old Shettleston Rd East,Intersection,Yes,264742,664161,55.851620129797354,-4.162142022110153
Glasgow Rd / Baillieston Rd / Mt Vernon Ave/Barrachnie Rd,Intersection,Yes,266585,663919,55.84996086437578,-4.132606530742621
Glasgow Rd EB / Maxwell Ave / Huntingtower Rd,Toucan,Yes,267110,663886,55.84980956571021,-4.124211039076164
Glasgow Rd WB / Maxwell Ave / Huntingtower Rd,Toucan,Yes,267116,663880,55.84975734721721,-4.124112335924937
Glasgow Rd EB / Beech Ave / Ladyhill Dr,Toucan,Yes,267261,663916,55.85012052607499,-4.121815673474263
Glasgow Rd WB / Beech Ave / Ladyhill Dr,Toucan,Yes,267269,663910,55.85006885627877,-4.121685051294005
Glasgow Rd / South Scott St,Intersection,Yes,267793,663905,55.85016794373857,-4.113319170221749
Main St / Church St,Toucan,Yes,267968,663917,55.8503236480457,-4.110531863721744
Main St / Martin Cres,Pelican,Yes,268124,664037,55.8514438037639,-4.108100311035178
E'burgh Rd/Main St/Coatbridge Rd/Ravenswood Rd(B'ston X),Intersection,Yes,268311,664182,55.85279685257299,-4.105185940622876
Easterhouse Rd / Easterhouse Station,Pelican,Yes,268181,664982,55.85994436530011,-4.107649987235405
Easterhouse Rd / M8 On-Ramp / Springcroft Business Park,Intersection,Yes,268164,665114,55.86112491614755,-4.107985599046086
Edinburgh Rd EB / Swinton Rd,Pelican,Yes,268114,664262,55.85346129943632,-4.10836935725644
Edinburgh Rd WB / Swinton Rd,Pelican,Yes,268119,664236,55.85322921848102,-4.108276900389284
Easterhouse Rd / Swinton Rd,Toucan,Yes,268182,664672,55.85716121037864,-4.1074832685833025
Easterhouse Rd / The Sidings,Intersection,Yes,268192,664875,55.85898664229324,-4.107422339997258
Muirhead Rd / Sth Scott St Toucan & Railway Br Shuttle,Intersection,Yes,267878,663368,55.84536963429021,-4.1117009312843456
Gallowgate / Kent St / East Campbell St,Pelican,Yes,260041,664740,55.855476605640014,-4.237469935607075
Gallowgate / McFarlane St,Wig Wag,No,260128,664719,55.855313319323464,-4.236070434427319
Gallowgate / Barrack St / Claythorn St,Intersection,Yes,260328,664758,55.85572145577278,-4.23289819247708
Gallowgate / Bellgrove St / Abercromby St,Intersection,Yes,260737,664707,55.85538191028582,-4.22634358159832
Gallowgate / Sword St / Wesleyan St,Pelican,Yes,260937,664650,55.85492789721537,-4.223121987518616
Gallowgate / Whitevale St / David St,Pelican,Yes,261318,664574,55.85435532040526,-4.217001718794557
Gallowgate / Fielden St / Millerston St,Intersection,Yes,261431,664552,55.85419029653405,-4.215186830426767
Fielden St / Crownpoint Rd,Intersection,Yes,261416,664385,55.852686629964815,-4.215340902878899
Gallowgate / Alma St,Pelican,Yes,261568,664522,55.85396031294714,-4.2129848000248975
Duke St  /Wellington St East,Pelican,Yes,262534,664433,55.85343768593071,-4.19752090135196
Gallowgate / Forge Shopping Centre,Intersection,Yes,262195,664378,55.8528470936909,-4.202903808736084
Tollcross Rd / Sorby St / Bus Depot,Pelican,Yes,262809,664014,55.849754115957346,-4.192919574426016
Tollcross Rd / Crail St / Canmore St,Pelican,Yes,262939,663931,55.84904588936399,-4.190802852885766
Tollcross Rd / Muiryfauld Dr / Maukinfauld Rd,Pelican,Yes,263221,663723,55.847258475252424,-4.1861973629357685
Tollcross Rd / Tollcross Park,Puffin,Yes,263379,663560,55.8458397950691,-4.183593767970125
Tollcross Rd / Wellshot Rd / Braidfauld St,Intersection,Yes,263841,663361,55.84418376758588,-4.1761211230981035
Tollcross Rd / Dalness St / Ardfern St,Pelican,Yes,264002,663307,55.84374436452038,-4.173524859796768
Tollcross Rd / Amurlee St,Pelican,Yes,264460,663174,55.842679173752984,-4.166149827247954
London Rd / Kent St,Puffin,Yes,259957,664624,55.85441075800372,-4.238750803078673
London Rd / Bain St / Monteith St,Intersection,Yes,260068,664517,55.85348234195288,-4.236923886707306
London Rd / Arcadia St,Intersection,Yes,260407,664174,55.85050114543441,-4.231336577677691
Abercromby St / Stevenson St,Pelican,Yes,260594,664402,55.85260225816919,-4.228469306548868
London Rd / Main St / Dalmarnock Rd/James St(Bridgeton X),Pelican,Yes,260709,664017,55.84917892826607,-4.226436102428593
London Rd / Fielden Rd / Dunn St,Intersection,Yes,261348,663961,55.84886033357263,-4.216209472552049
London Rd / Dalriada St / Buddon St,Pelican,Yes,262058,663844,55.848013532524966,-4.204818864436851
London Rd / Springfield Rd,Intersection,Yes,262219,663816,55.84780817496444,-4.202235242742432
London Rd / MacBeth St,Intersection,Yes,262495,663661,55.84649532998279,-4.197752000234346
London Rd / Canmore St,Intersection,Yes,262597,663572,55.84572533789204,-4.196079161367087
London Rd / Braidfauld St,Intersection,Yes,263536,662893,55.83989566386807,-4.180752858219441
James St / King's Dr / The Green,Intersection,Yes,260359,663816,55.847273094009374,-4.231918340074504
Bridgeton Perimeter Rd / Glasgow Green,Pelican,Yes,260442,663595,55.84531296616219,-4.230480105292389
Main St / Poplin St / Newhall St / Dunn St,Intersection,Yes,260712,663260,55.84238336097799,-4.225999570523046
Main St / Tullis St / Muslin St,Pelican,Yes,260685,663764,55.84690053244042,-4.226689186386022
Dalmarnock Rd / Dale St,Pelican,Yes,261019,663614,55.845650195338514,-4.221282256737624
Dunn St / Baltic St,Toucan,Yes,261237,663588,55.845479545119886,-4.2177901435678855
Dalmarnock Rd / Dunn St,Intersection,Yes,261114,663482,55.84449244994476,-4.2196986888751615
Dalmarnock Rd / Springfield Rd,Intersection,Yes,261369,663106,55.841190026980925,-4.215437449401677
Dalmarnock Rd / Summerfield St / Strathclyde St,Pelican,Yes,261457,663026,55.8404970582477,-4.213992473101106
Dalmarnock Rd NB/Birkwood,Pelican,Yes,261640,662825,55.83874496946631,-4.210970086708713
Dalmarnock Rd SB/Birkwood,Pelican,Yes,261643,662834,55.83882663399994,-4.2109268092008145
London Rd / Hamilton Rd / Mount Vernon Ave / A74,Intersection,No,266410,662845,55.840269322724225,-4.134870769401252
London Rd / Kenmuirhill Rd / A74,Intersection,No,265639,662629,55.838115768141584,-4.1470662498504804
London Rd / London Gait,Intersection,Yes,265171,662522,55.837024465921075,-4.154480259828362
London Rd / Carmyle Ave / A74,Intersection,Yes,264801,662436,55.836148746522205,-4.160340761556559
Fullarton Rd / M74 off ramp WB,Intersection,Yes,264102,662331,55.83500958500443,-4.1714403892728384
Fullarton Rd / M74 off ramp EB,Intersection,Yes,264062,662446,55.836030837160514,-4.172136136225969
London Rd / Fullarton Rd / A74,Intersection,Yes,264175,662562,55.83710417077791,-4.1703913281436185
London Rd / Causewayside St,Intersection,No,264051,662634,55.8377156863642,-4.172405792403857
Carmyle Ave / M74 Off WB,Intersection,Yes,264839,662291,55.83485750884999,-4.159662291959475
Caledonia Rd / Lawmoor St,Intersection,Yes,259304,663623,55.84523366352711,-4.2486541810046035
Rutherglen Rd  EB / Caledonia St,Puffin,Yes,259622,663426,55.84355767179302,-4.243477799245364
Braehead St NB / Wolseley St,Toucan,Yes,259715,663274,55.842220074376236,-4.241915238963727
Braehead St SB / Wolseley St,Toucan,Yes,259729,663269,55.84217925637096,-4.2416892674795115
Rutherglen Rd / Shawfield Dr / Shawfield Stadium,Intersection,Yes,260364,662808,55.838224629498455,-4.231319834924516
New Rutherglen Rd / Granton St,Intersection,Yes,260143,662799,55.83807979829297,-4.234841175741836
Polmadie Rd / Kilbride St,Intersection,Yes,259855,662870,55.83863364836501,-4.239472743762
Kilbride St EB / Logan St,Pelican,Yes,259720,663002,55.83977950514662,-4.241694858432806
Kilbride St WB / Logan St,Pelican,Yes,259715,662994,55.83970622666312,-4.241770499372722
Prospecthill Rd / Glenmore Ave / Prospecthill Cres,Pelican,Yes,260102,661791,55.829018005046834,-4.234975930347185
Prospecthill Rd / Prospecthill Circus,Intersection,Yes,259914,661805,55.82908915346674,-4.237981911172686
Croftfoot Rd / Castlemilk Dr / Castlemilk Rd,Intersection,Yes,260596,659885,55.8120486261746,-4.2261183374793045
Castlemilk Dr / Barlia Dr / Dougrie Dr,Puffin,Yes,260147,659278,55.80646905441885,-4.232964995743561
Castlemilk Dr / Dougrie Rd,Intersection,Yes,260232,659159,55.805425264011646,-4.231548799594137
Aikenhead Rd / Calder St,Intersection,Yes,259254,662554,55.835621608597386,-4.248897659011493
Aikenhead Rd / Dixon St,Toucan,Yes,259265,662189,55.83234784930439,-4.248532971761249
Aikenhead Rd / Asda Access / Myrtle Hill View,Intersection,Yes,259315,661829,55.82913034949604,-4.247548863476481
Aikenhead Rd / Prospecthill Rd,Intersection,Yes,259332,661749,55.82841706485726,-4.247236265055789
Prospecthill Rd /Adsa Exit (West),Intersection,Yes,259403,661768,55.828608340202905,-4.246113614763811
ProspecthillRd / Asda Exit (East),Intersection,Yes,259518,661775,55.828704681312665,-4.244282916063269
Aikenhead Rd / Curtis Ave / Curling Cres,Pelican,Yes,259354,661540,55.82654707239194,-4.246777130771061
Aikenhead Rd / Ardmay Cres / Kinmount Ave,Toucan,Yes,259172,661178,55.82324395555129,-4.249492317698406
Aikenhead Rd / King's Park Ave,Intersection,Yes,259106,660850,55.82027990744195,-4.250374827708714
King's Park Ave @ Kingsbridge Dr,Intersection,Yes,259496,660802,55.81996264629854,-4.244130604800965
Aikenhead Rd / Menock Rd,Intersection,Yes,259100,660726,55.81916488325939,-4.25040621717382
Carmunock Rd / Carna Dr,Pelican,Yes,259370,660274,55.81518554906772,-4.24586672974566
Carmunock Rd / Fetlar Dr,Pelican,Yes,259373,660096,55.8135883314087,-4.2457268120449045
Carmunock Rd / Croftfoot Rd,Pelican,Yes,259431,659799,55.810938740591574,-4.244648474273165
Croftfoot Rd / Carmunock Rd / Thorncroft Dr,Toucan,Yes,259498,659705,55.8101143037783,-4.243531694588604
Carmunock Rd (South) SB / Croftfoot Rd / Drakemire Dr,Puffin,Yes,259467,659644,55.80955762071215,-4.243994402862261
Carmunock Rd / Lainshaw Dr,Intersection,Yes,259342,658747,55.8014679087927,-4.2455233780615504
Drakemire Dr /  Carmunnock Rd,Puffin,Yes,259401,659679,55.80985263950445,-4.245064725417014
Carmunock Rd / Dougrie Rd,Intersection,Yes,259406,658978,55.80356047554202,-4.244622632397199
Carmunock Rd / Blaeloch Ave,Pelican,Yes,259141,658451,55.79875183235969,-4.248573971359601
Pollokshaws Rd / Gourock St,Pelican,Yes,258504,663487,55.843778595168516,-4.261349055958813
Eglinton Toll East (Temporary Pelican),Pelican,Yes,258442,663409,55.843060124004055,-4.262297674427331
Victoria Rd NB / Plaza Ballroom,Pelican,Yes,258407,663316,55.84221490501501,-4.262807618592512
Victoria Rd SB / Plaza Ballroom,Pelican,Yes,258415,663317,55.84222623156396,-4.262680492542536
Victoria Rd NB / Coplaw St,Pelican,Yes,258343,663052,55.8398259474782,-4.263690998011871
Victoria Rd SB / Coplaw St,Pelican,Yes,258350,663045,55.839765158033934,-4.263575659712572
Victoria Rd NB / Kingarth St,Pelican,Yes,258316,662939,55.83880351505478,-4.264062794066387
Victoria Rd SB / Kingarth St,Pelican,Yes,258323,662933,55.838751703823455,-4.263947980244334
Victoria Rd / Calder St,Intersection,Yes,258295,662828,55.837800799977835,-4.264339890537326
Calder St / Langside Rd,Pelican,Yes,258458,662783,55.83744465161467,-4.261715895193345
Victoria Rd / Allison St (Victoria X),Intersection,Yes,258262,662698,55.83662397847787,-4.264798497668582
Allison St / Langside Rd,Pelican,Yes,258405,662646,55.836199123690804,-4.262489997676766
Allison St /Annette St,Toucan,Yes,258482,662617,55.83596135967737,-4.261246458350547
Victoria Rd NB / Dixon Ave,Pelican,Yes,258227,662565,55.835419633848815,-4.265287417681374
Victoria Rd SB / Dixon Ave,Pelican,Yes,258234,662560,55.835376801555185,-4.265173134550215
Victoria Rd NB / Albert Rd / Torrisdale St,Pelican,Yes,258205,662473,55.83458720197107,-4.265590336725558
Victoria Rd SB / Albert Rd,Pelican,Yes,258212,662467,55.83453539204452,-4.265475533488643
Victoria Rd / Queen's Dr,Intersection,Yes,258179,662357,55.83353812414513,-4.265944517045192
Calder St / Hollybrook St,Intersection,Yes,258931,662647,55.836362211335945,-4.254098927894318
Cathcart Rd / Aikenhead Rd,Intersection,Yes,258817,663155,55.8408896549809,-4.256181883463989
Cathcart Rd / Preston St,Puffin,Yes,258761,662901,55.83859286335143,-4.25694321015608
Cathcart Rd / Calder St,Intersection,Yes,258745,662700,55.836783612459726,-4.257093884702579
Cathcart St / Bankhall St,Toucan,Yes,258754,662604,55.83592436547359,-4.256900350352968
Cathcart St / Allison St,Intersection,Yes,258779,662506,55.835051846229945,-4.256450534826465
Cathcart St / Albert Rd,Pelican,Yes,258811,662295,55.83316686519472,-4.255830308927201
Langside Rd / Grange Rd,Intersection,Yes,258304,661937,55.82980413354091,-4.2637313041847795
Grange Rd / Victoria Hospital,Puffin,Yes,258261,661853,55.82903735990198,-4.264373352465585
Prospecthill Rd / New Annan St,Puffin,Yes,258388,661720,55.827880585858985,-4.2622782824813585
Battlefield Rd/Grange Rd/Prospecthill Rd/Battlefield Gdns,Intersection,Yes,258162,661626,55.82697028588507,-4.265833913882584
Cathcart Rd / Prospecthill Rd / Hampden Terr,Intersection,Yes,258567,661727,55.827995929796316,-4.259426852772671
Cathcart Rd / Stanmore Rd / Cumming Dr,Puffin,Yes,258627,661602,55.8268912690955,-4.258404779902783
Cathcart Rd / Battlefield Rd / King's Park Rd/Cordiner St,Intersection,Yes,258633,661278,55.82398417124877,-4.258140472127367
Holmlea Rd / Garry St,Pelican,Yes,258444,661056,55.82193567040681,-4.261039080779957
Carmunnock Rd / King's Park Ave / King's Park Rd,Intersection,Yes,258763,660916,55.820772209329995,-4.255878981155495
Carmunnock Rd / Manse Brae / Menock Rd,Intersection,Yes,258774,660676,55.818620714289544,-4.255578835016913
Delvin Rd / Berridale Ave,Pelican,Yes,258436,660527,55.81718399338692,-4.260891090406442
Holmlea Rd / Old Castle Rd,Intersection,Yes,258401,660653,55.81830494869108,-4.261514837373586
Newlands Rd / Clarkston Rd / Tankerland Rd,Pelican,Yes,258315,660552,55.81737294267638,-4.262833556691666
Clarkston Rd / Newlands Rd / Delvin Rd / Rhannan Rd,Intersection,Yes,258341,660525,55.81713816892475,-4.262404893099037
Clarkston Rd / Struan Rd,Pelican,Yes,258239,660386,55.81586029429276,-4.263958858809898
Clarkston Rd / Merrylee Rd,Intersection,Yes,258034,660161,55.81378002326066,-4.267110107545952
Clarkston Rd / Gavinton St / Dairsie St,Pelican,Yes,257859,659933,55.8116815725893,-4.2697811500705845
Clarkston Rd / Muirend Rd,Intersection,Yes,257713,659609,55.808729734662364,-4.271939342012241
Muirend Rd / Hazelden Gdns,Intersection,Yes,257402,659746,55.80986796241503,-4.276969185081064
Langside Dr / Newlands Rd,Intersection,Yes,257377,660849,55.81976314120645,-4.277946455189922
Langside Dr / Merrylee Rd,Intersection,Yes,257349,660216,55.814071895835795,-4.278060738170864
Millbrae Rd / Tantallon Rd / Millbrae Cresc,Toucan,Yes,257447,661183,55.82278241777663,-4.277005414997586
Eglinton St / Cavendish St,Puffin,Yes,258535,663839,55.846947911721756,-4.261037938461357
Eglinton St / Devon St / Kilbirnie St,Intersection,No,258518,663770,55.84632344897038,-4.261273238416733
Eglinton St / Gourock St / Cardwell St,Pelican,Yes,258458,663518,55.844043411154495,-4.262099231828347
Pollokshaws Rd / Maxwell Rd / Eglinton Toll,Pelican,Yes,258375,663337,55.842394044839004,-4.263329169584208
Pollokshaws Rd / Albert Dr,Intersection,Yes,258234,663162,55.840781489428004,-4.265487548885495
Pollokshaws Rd / Calder St / Nithsdale Dr,Intersection,Yes,258065,662889,55.83828082752015,-4.268041234202268
Pollokshaws Rd / Allison St / Nithsdale St,Intersection,Yes,257989,662752,55.83702849090504,-4.269182086256581
Pollokshaws Rd / Torrisdale St / Nithsdale Rd,Toucan,Yes,257909,662678,55.8363405709831,-4.270419653720987
Pollokshaws Rd / Queen's Dr / Regent Park Square,Intersection,Yes,257835,662608,55.835690318566,-4.271563553004768
Pollokshaws Rd / Titwood Rd,Pelican,Yes,257667,662453,55.834249214729596,-4.274162426242807
Pollokshaws Rd / Minard Rd / Langside Ave,Intersection,Yes,257361,662162,55.831546294752044,-4.278891035315123
Pollokshaws Rd / Kilmarnock Rd /Moss-side Rd(Shawlands X),Intersection,Yes,257231,662052,55.8305202862973,-4.280906887200234
Pollokshaws Rd / Shawlands Primary School,Toucan,Yes,256982,661934,55.82938716637637,-4.284816532552156
Kilmarnock Rd / Mount Stuart St / Shawlands Arcade,Puffin,Yes,257134,661934,55.829432195156606,-4.282392056266848
Kilmarnock Rd / Regwood St / Carment Dr,Puffin,Yes,256929,661592,55.82630105501866,-4.285481760970411
Kilmarnock Rd / Newlandsfield Rd,Intersection,Yes,256866,661328,55.82391224055548,-4.286347462943059
Kilmarnock Rd / Riverford Rd / Newlands Rd,Intersection,Yes,256808,661031,55.82122863684351,-4.287115936246129
Kilmarnock Rd / Merrylee Rd / Netherauldhouse Rd,Intersection,Yes,256695,660490,55.816338127039835,-4.288632687635621
Kilmarnock Rd / Ledi Rd,Puffin,Yes,256516,660188,55.813573675105026,-4.291327450082243
Auldhouse Rd / Riverford Rd,Intersection,Yes,256599,661101,55.82179503073277,-4.2904858191556885
Auldhouse Rd / Netherauldhouse Rd,Intersection,Yes,256174,660828,55.8192176575309,-4.297118907146284
Ashtree Rd / Shawbridge St,Pelican,Yes,256331,661499,55.8252884657598,-4.294970149371018
St Andrews Dr / St Andrews Rd / Shields Rd,Intersection,Yes,257647,663752,55.84590550816455,-4.275162815366039
St Andrews Rd / Darnley St / Maxwell Rd,Intersection,Yes,258062,663491,55.843684619155155,-4.268403950228429
Darnley St / Albert Dr,Intersection,Yes,257987,663254,55.841534787892996,-4.269476656093359
Darnley St / Leslie St,Pelican,Yes,257931,663110,55.84022548469123,-4.270294787862385
Darnley Rd / Darnley St / Nithsdale St,Intersection,Yes,257729,662871,55.838020240126845,-4.273392429542582
Darnley Rd / Fotheringay Rd,Pelican,Yes,257570,662784,55.837192246803035,-4.2758834842259
Titwood Rd / Darnley Rd,Intersection,Yes,257057,662478,55.83429330344509,-4.2839066112263176
Titwood Rd / Shawmoss Rd / Dolphin Rd / Safeway Car Park,Intersection,Yes,256831,662483,55.83427117605871,-4.287514504578872
Nithsdale Rd / Shields Rd,Pelican,Yes,257492,663095,55.83996130922364,-4.277291161819375
Albert Dr / Kenmure Ave (Albert X),Intersection,Yes,257781,663329,55.84214742450639,-4.272802813465886
St Andrews Dr / Maxwell Dr,Toucan,Yes,256937,663752,55.8456953917138,-4.2864924583520745
Nithsdale Rd / St Andrews Dr (Nithsdale X),Intersection,Yes,256749,663372,55.842228043966685,-4.2892917766507335
St Andrews Dr / Dalziel Dr / Hamilton Ave,Pelican,Yes,256635,663096,55.83971631848357,-4.290964922320061
Haggs Rd / Dumbreck Rd / Titwood Rd /St Andrews Dr,Intersection,Yes,256223,662534,55.83454822274376,-4.297240545113291
Haggs Rd / Shawmoss Rd / Pollok Park,Intersection,Yes,256299,662168,55.83128502747749,-4.295834459147851
Haggs Rd / Magnet,Intersection,Yes,256294,661967,55.82947901908133,-4.295807852725378
Pollokshaws Rd / Haggs Rd,Intersection,Yes,256255,661738,55.827411507431265,-4.296308721198114
Pollokshaws Rd NB / Bengal St,Toucan,Yes,256050,661518,55.8253753063123,-4.299461787084362
Pollokshaws Rd SB / Bengal St,Toucan,Yes,256061,661518,55.82537858730801,-4.29928635164818
Nitshill Rd / M77 NB,Intersection,Yes,253512,659343,55.80508564400438,-4.338766511058434
Pollokshaws Rd NB / Pollokshaws West Station,Toucan,Yes,255942,661337,55.823718119024704,-4.3010882645039334
Pollokshaws Rd SB / Pollokshaws West Station,Toucan,Yes,255951,661337,55.82372080533991,-4.300944732687722
Nitshill Rd / Glen Moriston Rd,Intersection,Yes,253351,659414,55.805674184161255,-4.341371115451652
Netherauldhouse Rd / Shawbrdge St,Pelican,Yes,255872,661013,55.820788451421826,-4.302032758374101
Netherauldhouse Rd / Cogan Rd,Intersection,Yes,256007,660914,55.81993995172145,-4.299827483104517
Thornliebank Rd / Wellmeadow Rd,Pelican,Yes,255806,660913,55.81987097156549,-4.303032182272067
Thornliebank Rd / Mansewood Rd / Hillside Rd,Pelican,Yes,255838,660650,55.81751939912107,-4.302382389424543
Thornliebank Rd / Garvock Dr,Intersection,Yes,255771,660480,55.81597318034792,-4.303360525226654
Thornliebank Rd / Banchory Ave,Pelican,Yes,255625,660308,55.81438538098579,-4.305597109008019
Thornliebank Rd / Burnfield Rd,Intersection,Yes,255402,660123,55.812657778541215,-4.30905424091671
Boydstone Rd / Kennishead Railway Bridge,Intersection,No,254376,660158,55.81266363633348,-4.325430721977139
Kennishead Rd / St Paul's School / Glen Moriston Rd,Toucan,Yes,253575,660073,55.8116583032993,-4.33815533874058
Peat Rd / Priesthill Rd,Intersection,Yes,252728,660765,55.81761305202943,-4.35203351767797
Peat Rd NB / Hartstone Rd,Pelican,Yes,252995,661221,55.82178812321014,-4.348022883454358
Peat Rd SB / Hartstone Rd,Pelican,Yes,253013,661228,55.821856446795294,-4.347739630138714
Peat Rd / Cowglen Rd,Intersection,Yes,253035,661288,55.82240178945835,-4.347421255072664
Cowglen Rd / Pollok Township (Car Park Exit),Intersection,Yes,253206,660917,55.81912320726044,-4.3444939155954625
Barrhead Rd / Boydstone Rd,Intersection,Yes,254199,661282,55.82270095135945,-4.32885561807284
Barrhead Rd / M77 On-Off Ramps SB,Intersection,Yes,253897,661330,55.82304054654876,-4.333697484290956
Barrhead Rd / Pollok Township NB,Toucan,Yes,253565,661074,55.82064170540747,-4.3388540213360995
Barrhead Rd / Pollok Township SB,Toucan,Yes,253577,661076,55.82066330064039,-4.338663743443134
Barrhead Rd / Retail Access / Pollok Township,Intersection,Yes,253586,661385,55.823440062273434,-4.338686728648185
Barrhead Rd / M77 On-Off Ramps NB,Intersection,Yes,253720,661364,55.8232921675354,-4.336538462647431
Barrhead Rd EB / Maidland Rd / Pollok Centre,Puffin,Yes,253448,661418,55.82369443392949,-4.3409052726649655
Barrhead Rd WB / Maidland Rd / Pollok Centre,Puffin,Yes,253446,661408,55.82360405231313,-4.34093177359926
Barrhead Rd East EB / Pollok Roundabout,Pelican,Yes,253224,661481,55.82419194115712,-4.344511544067702
Barrhead Rd East WB / Pollok Roundabout,Pelican,Yes,253227,661468,55.8240761472039,-4.344456678005963
Braidcraft Rd NB / Pollok Roundabout,Pelican,Yes,253201,661534,55.82466074831096,-4.344906978543251
Braidcraft Rd SB / Pollok Roundabout,Pelican,Yes,253214,661531,55.82463777016009,-4.344698035332483
Peat Rd NB / Pollok Roundabout,Pelican,Yes,253130,661451,55.82389402286045,-4.345994407214272
Peat Rd SB / Pollok Roundabout,Pelican,Yes,253143,661453,55.823915933522684,-4.345788170200633
Brockburn Rd NB / Pollok Roundabout,Pelican,Yes,253135,661543,55.82472146501292,-4.345964402507643
Brockburn Rd SB / Pollok Roundabout,Pelican,Yes,253142,661553,55.82481336910938,-4.345858172991761
Barrhead Rd West EB / Pollok Roundabout,Pelican,Yes,253108,661517,55.824479835635,-4.3463809373767335
Barrhead Rd West WB / Pollok Roundabout,Pelican,Yes,253110,661505,55.82437271561258,-4.346342553754718
Braidcraft Rd / Levernside Rd,Intersection,Yes,253364,661689,55.82610180098181,-4.342391136492269
Braidcraft Rd NB / Neilsland Square / Langton Cres,Pelican,Yes,253500,661981,55.82876451511468,-4.340379627125763
Braidcraft Rd SB / Neilsland Square / Langton Cres,Pelican,Yes,253511,661982,55.82877683201824,-4.340204720861423
Corkerhill Rd NB / Braidcraft Terr / Linthaugh Terr,Toucan,Yes,253580,662323,55.83185907842798,-4.3392880457638725
Corkerhill Rd NB / Braidcraft Terr / Linthaugh Terr,Toucan,Yes,253573,662306,55.83170433779603,-4.339390535158354
Barrhead Rd / Crookston Rd,Intersection,Yes,252040,661274,55.82197211692416,-4.363280660967226
Nitshill Rd/Hurlet Rd/Barrhead Rd/Glasgow Rd(Hurlet X),Intersection,No,251609,660919,55.818652881214376,-4.369959752445113
Crookston Rd / Raeswood Rd,Intersection,Yes,252052,661645,55.825306369102755,-4.36329132472512
Crookston Rd / Bullwood Dr,Intersection,Yes,252072,662163,55.82996273217102,-4.363254468451019
Crookston Rd / Crookston Home,Intersection,Yes,252064,661959,55.828128914623846,-4.363270953012738
Crookston Rd / Brockburn Rd,Intersection,Yes,252123,662649,55.83434132229481,-4.362705686334861
Crookston Rd / Kempsthorn Rd / Leverndale Rd / Parklands,Intersection,Yes,252107,662408,55.832172894372164,-4.3628296484347535
Crookston Rd / Leverndale Housing Access,Intersection,Yes,252070,662733,55.83507916474407,-4.363596889429572
Crookston Rd / Leverndale Hospital Access,Intersection,Yes,251919,662969,55.83715147090257,-4.366134352358587
Brockburn Rd EB @ Primary School,Puffin,Yes,252638,662539,55.833511396833025,-4.354430857028113
Brockburn Rd WB @ Primary School,Puffin,Yes,252645,662526,55.83339682955195,-4.354312142365764
Nitshill Rd / Loganswell Rd,Intersection,Yes,254160,658932,55.80159198384343,-4.328217031295255
Nitshill Rd / M77 SB,Intersection,Yes,253704,659214,55.803985744289776,-4.335636659844475
Darnley Mains Rd / M77 On-Off Ramp NB,Intersection,Yes,253462,659232,55.804073977108004,-4.339503711515823
Nitshill Rd / Kyleakin Rd,Intersection,Yes,253903,659085,55.802887880523016,-4.332395410085281
Glen Moriston Rd / Glen Clunie Dr,Pelican,Yes,253407,659682,55.80809714394588,-4.340622914261801
Nitshill Rd / Parkhouse Rd / Kennishead Rd / Corselet Rd,Intersection,Yes,252877,659694,55.80804369689477,-4.3490781698592285
Parkhouse Rd / Whinfield Rd,Pelican,Yes,252376,659642,55.8074239839112,-4.357036360456306
Nitshill Rd / Retail Park,Intersection,Yes,252528,660003,55.810711252285266,-4.354809138596719
Nitshill Rd / Woodneuk Rd,Intersection,Yes,252656,659900,55.80982565773455,-4.352712742168027
Nitshill Rd EB / Cleeves Rd,Pelican,Yes,252200,660303,55.81330416544748,-4.360201191879549
Nitshill Rd WB / Cleeves Rd,Pelican,Yes,252193,660295,55.81323020402327,-4.360308443936537
Nitshill Rd / Craigbank Dr,Pelican,Yes,252053,660616,55.81606904069567,-4.362715158556929
Nitshill Rd / Peat Rd,Intersection,Yes,252152,660451,55.81461811238201,-4.36104694542402
Parkhouse Rd / Whitriggs Rd / Parkmanor Ave,Toucan,Yes,251979,659624,55.80714087342514,-4.363354990904117
Scotland St / Pollok St / Scotland St School,Pelican,Yes,257825,664190,55.84989031055828,-4.272551964352093
Scotland St / Shields Rd,Intersection,Yes,257575,664189,55.849807548205035,-4.276541182696635
Seaward St / Milnpark St,Toucan,Yes,257515,664324,55.85100182271446,-4.277569638691276
Carnoustie St/Gloucester St/Dalhousie St/M8 On-Ramp WB,Intersection,Yes,257940,664385,55.851674885745624,-4.270818814327001
Paisley Rd / Carnoustie St / Morrison St,Intersection,Yes,257989,664643,55.8540056032127,-4.270171893283255
Paisley Rd / Weir St / M8 Off-Ramp EB / Springfield Quay,Intersection,Yes,257808,664627,55.853808604358164,-4.273052389432073
Paisley Rd / Seaward St,Intersection,Yes,257547,664621,55.85367768310652,-4.277214946828577
Paisley Rd/Paisley Rd W/Govan Rd/Admiral St ( PR Toll),Intersection,Yes,257471,664629,55.85372704158954,-4.278432149705396
Paisley Rd West / Portman St,Pelican,Yes,257235,664587,55.85328014341399,-4.282176711897984
Paisley Rd West / Sussex St,Pelican,Yes,257077,664545,55.85285626229973,-4.284676298898312
Paisley Rd West / Lorne St,Pelican,Yes,256895,664503,55.85242520740349,-4.287558867489261
Paisley Rd West / Cessnock St / Percy St,Toucan,Yes,256487,664456,55.85188197549402,-4.2940456034104875
Paisley Rd West EB / North Gower St / Gower St,Pelican,Yes,256225,664420,55.85148071816968,-4.298207920527797
Paisley Rd West WB / North Gower St / Gower St,Pelican,Yes,256235,664406,55.85135801290742,-4.298040905540018
Paisley Rd West / Midlock St,Toucan,Yes,256099,664379,55.85107504340024,-4.30019704584235
Edmiston Dr / Copland Rd,Intersection,Yes,255711,664480,55.85186582050244,-4.306442921943462
Paisley Rd West / Copland Rd,Pelican,Yes,255688,664317,55.85039558633719,-4.306723258302251
Dumbreck Rd / M77 On-Off Ramps SB,Intersection,Yes,255542,663030,55.838797686248775,-4.308368036601517
Dumbreck Rd / M77 On-Off Ramps NB,Intersection,Yes,255534,663238,55.84066263395719,-4.3086063821592715
Dumbreck Rd / Mosspark Blvd / Fleurs Ave,Intersection,Yes,255517,663332,55.841501437068864,-4.308927658130316
Nithsdale Rd / Fleurs Ave,Toucan,Yes,255930,663635,55.84434520924081,-4.302499018192303
Dumbreck Rd / Nithsdale Rd,Intersection,Yes,255484,663677,55.844588823113725,-4.309637915040111
Dumbreck Rd / M8 Off Ramp WB / M8 On-Ramp EB,Intersection,Yes,255479,664134,55.84869008585291,-4.309961145210143
Paisley Rd West / Dumbreck Rd / Broomloan Rd,Intersection,Yes,255415,664253,55.84973923165187,-4.311045893821696
Broomloan Rd / Ardo Gardens,Pelican,Yes,255361,664435,55.851356954506166,-4.3120047094854455
Helen St / M8 On-Off Ramps WB/M8 On-Off Ramps EB,Intersection,Yes,254884,664280,55.849822102002165,-4.319534270140911
Paisley Rd West / Jura St,Intersection,Yes,254635,664051,55.84769124704006,-4.323385198623512
Paisley Rd West / Corkerhill Rd,Intersection,Yes,254177,663948,55.84662828119235,-4.330638356276381
Paisley Rd West / Mosspark Blvd,Intersection,Yes,253945,663904,55.846163061304836,-4.334316690281135
Paisley Rd West EB / Lourdes Ave,Pelican,Yes,253827,663892,55.846019578444185,-4.336193124273036
Paisley Rd West WB / Lourdes Ave,Pelican,Yes,253840,663881,55.845924767077314,-4.335979761069696
Mosspark Blvd / Corkerhill Rd,Intersection,Yes,254107,663746,55.84479366161311,-4.331646725999678
Mosspark Blvd / Bellahouston Dr,Intersection,Yes,254390,663555,55.843164492702286,-4.327028595690466
Mosspark Blvd / Auldbar Rd,Pelican,Yes,254681,663406,55.84191461309153,-4.3223056988856845
Corkerhill Rd / Mosspark Dr,Intersection,Yes,253886,663168,55.83953779175191,-4.334861844894889
Corkerhill Rd NB / Hardridge Rd,Puffin,Yes,253845,662848,55.83665258770423,-4.335343662618057
Corkerhill Rd SB / Hardridge Rd,Puffin,Yes,253855,662850,55.836673572249644,-4.335185210450478
Mosspark Dr / Tannadice Ave / Kinnell Ave,Pelican,Yes,253376,663358,55.841088736956564,-4.343101026099516
Paisley Rd West / Morrisons Access,Intersection,Yes,253466,663865,55.84566762836935,-4.341938894647337
Paisley Rd West / Berryknowes Rd,Intersection,Yes,253350,663858,55.8455695247823,-4.343786063198333
Berryknowes Rd / Lourdes Primary School,Intersection,Yes,253406,664213,55.84877352234268,-4.3430843298451745
Berryknowes Rd NB / Kingsland Dr,Pelican,Yes,253525,664491,55.8513054007909,-4.341335479676592
Berryknowes Rd SB / Kingsland Dr,Pelican,Yes,253536,664500,55.8513895390103,-4.341164792868164
Berryknowes Rd / Clyde Tunnel Expressway,Intersection,No,253561,664677,55.85298613095513,-4.340861394367129
Paisley Rd West / Mosspark Dr,Intersection,Yes,253110,663872,55.84562216389876,-4.347623179595534
Paisley Rd West / Tweedsmuir Rd / Forfar Ave,Pelican,Yes,252651,663911,55.845832250160136,-4.354968323587679
Cardonald Place Rd / Railway Shuttle Bridge,Intersection,No,252583,663612,55.84312725396463,-4.355890913605957
Paisley Rd West / Hillington Rd,Intersection,Yes,252351,663897,55.84561480957502,-4.35974761708035
Hillington Rd / Tinwald Path,Pelican,Yes,252347,664022,55.84673574442358,-4.3598794702519355
Paisley Rd West / Crookston Rd / Sandwood Rd,Intersection,Yes,252061,663876,55.84533741080531,-4.364363473930263
Crookston Rd / Rosshall Hospital  / Cairnhill Circus,Intersection,Yes,252045,663419,55.8412298987321,-4.3643695984608994
Sandwood Rd NB / Penneld Rd,Pelican,Yes,252167,664166,55.84797332114953,-4.362830146838827
Sandwood Rd SB / Penneld Rd,Pelican,Yes,252179,664172,55.84803086348462,-4.362641929768427
Sandwood Rd / Bowfield Dr / Yair Dr,Intersection,Yes,252122,664687,55.85263666788495,-4.3638322674167425
Sandwood Rd NB / Chirnside Rd / Linburn Rd,Toucan,Yes,252077,664917,55.85468762708031,-4.364675886454308
Sandwood Rd SB / Chirnside Rd / Linburn Rd,Toucan,Yes,252094,664929,55.854800569916485,-4.36441111289579
Shieldhall Rd / Craigton Rd,Intersection,Yes,254654,664786,55.8542954397564,-4.323475887470954
Shieldhall Rd / Drumoyne Rd,Intersection,Yes,254254,664893,55.85513526266588,-4.329917473319504
Shieldhall Rd / Balbeg St,Pelican,Yes,254074,664939,55.855493770612,-4.3328151176746355
Shieldhall Rd / Tormore St,Pelican,Yes,253716,665058,55.85645357696337,-4.338593206740773
Shieldhall Rd / Fulbar St,Pelican,Yes,253542,665165,55.85736132206274,-4.3414282094251035
Shieldhall Rd / Hardgate Rd,Intersection,Yes,253138,665443,55.859734102043866,-4.348027151278251
Moss Rd NB On-Ramp / Shieldhall Rd,Pelican,Yes,253676,665261,55.858263847275005,-4.339341206555763
Langlands Rd / Moss Rd SB Off-Ramp / Shieldhall Rd,Pelican,Yes,253698,665246,55.85813586441976,-4.338981954323688
Moss Rd / Peninver Dr,Pelican,Yes,253967,665913,55.8642053729582,-4.335047621719911
Govan Rd / Pacific Dr,Intersection,Yes,256922,664956,55.85650013112483,-4.287366979191991
Govan Rd / Summertown Rd / Govan Town Hall,Pelican,Yes,256156,664988,55.85655944188241,-4.299610420097891
Govan Rd / Finnieston Bridge,Intersection,Yes,257056,664908,55.8561089555881,-4.285202821253556
Finnieston Bridge Toucan,Toucan,Yes,257125,664965,55.85664114338527,-4.2841315200866985
Govan Rd / Moss Rd,Pelican,Yes,253895,666007,55.86502742484827,-4.3362477221321045
Govan Rd / Holmfauldhead Dr,Pelican,Yes,254132,665919,55.86430920998741,-4.332416757772009
Clyde Tunnel South Portal,Intersection,No,254204,665995,55.865013283428425,-4.331308220168264
Govan Rd / Elder St,Pelican,Yes,254936,665854,55.863968368598435,-4.31954660693781
Golspie St / Garmouth St / Langlands Rd,Pelican,Yes,255070,665739,55.86297627196559,-4.317345893631916
Golspie St EB / Shaw St / Netham St,Pelican,Yes,255193,665669,55.86238481902807,-4.315344933469522
Golspie St WB / Shaw St / Netham St,Pelican,Yes,255200,665648,55.86219839398013,-4.315221968323085
Golspie St / Helen St / Robert St,Intersection,Yes,255399,665625,55.86205165988949,-4.312032938872054
Govan Rd / Water Row (Govan X),Pelican,Yes,255450,665720,55.862919827843676,-4.311269465403541
Govan Rd / Orkney St,Pelican,Yes,255606,665602,55.861907239880416,-4.308716222977786
Helen St / Harmony Row,Intersection,Yes,255224,665192,55.858111843941515,-4.314595290858228
Paisley Rd West / Helen St (Asda),Intersection,Yes,254921,664431,55.85118884384097,-4.319024576046432
West St / Wallace St/ M8 Off ramp,Intersection,Yes,258294,664440,55.852272848842375,-4.265197778916003
Scotland St / Carnoustie St / Carnoustie Pl,Intersection,Yes,257948,664188,55.849908609435666,-4.2705879563011555
Fullarton Rd / M74 off ramp WB (2nd stream),Intersection,Yes,264048,662330,55.83498539072497,-4.172301404590544
Fullarton Rd / M74 off ramp EB (2nd stream),Intersection,Yes,264127,662427,55.8358785598029,-4.171089588233666
Rutherglen Rd WB / Caledonia St,Puffin,Yes,259618,663419,55.843493661331244,-4.243538004612664
Polmadie Rd / M74 on/off ramp WB,Intersection,Yes,259761,662762,55.83763669933146,-4.240916690394881
Polmadie Rd / M74 on/off ramp EB,Intersection,Yes,259803,662806,55.83804394224953,-4.240269333949495
Carnoustie St / M74 on/off ramp,Intersection,Yes,257946,664260,55.85055442437477,-4.270657584002173
Polmadie Rd / Calder St,Intersection,Yes,259509,662479,55.83502258979423,-4.244790712875362
Aikenhead Rd / Polmadie Rd,Intersection,Yes,259267,662102,55.831567346712944,-4.248455977121383
Shawfield Dr / Shawfield Rd,Intersection,Yes,260562,663040,55.8403648309518,-4.228279993150333
Shawfield Dr / Clyde Walkway,Toucan,Yes,260640,663127,55.84116847125723,-4.22708013187458
Carmunock Rd (South) NB / Croftfoot Rd / Drakemire Dr,Puffin,Yes,259460,659631,55.80943886860837,-4.244099283700572
Trongate / Brunswick St (linked 2nd stream GA475),Pelican,Yes,259403,664963,55.857293028776546,-4.247769074063354
University Ave / Oakfield Pl / Kelvin Way / Bank St,Toucan,Yes,257066,666688,55.872092267602696,-4.2859820640837825
Kelvin Way / University Ave,Toucan,Yes,257110,666626,55.87154870210205,-4.2852467656331
Elderslie St / Dover St,Toucan,Yes,257683,665756,55.86390764797189,-4.275640187209556
Duke St / New Station Rd,Intersection,Yes,260076,665239,55.859966804759054,-4.2371688327183445
Duke St / Ladywell,Intersection,Yes,260220,665201,55.85966742455142,-4.2348504854559055
London Rd / Claythorn Pk,Toucan,Yes,260186,664402,55.8524841036621,-4.234981209194982
Dunn St / Poplin St / Dora St,Intersection,Yes,260960,663290,55.84272426852815,-4.2220577350594155
Biggar St / EERR junc 7,Intersection,Yes,261836,664449,55.85338179049484,-4.208669957647758
London Rd / EERR junc 6,Intersection,Yes,261740,663895,55.84838034012701,-4.209919800472814
Panmure St / Ruchill Park / YMCA,Toucan,Yes,258299,668021,55.884423956001434,-4.2669909972169835
Bilsland Dr / Whitworth Dr,Toucan,Yes,258065,668432,55.88804490685404,-4.27094429541498
Greendyke St / Monteith St (2nd stream GH195),Puffin,Yes,259929,664576,55.85397167768949,-4.239172922131236
Dalmarnock Rd / Poplin St / EERR,Intersection,Yes,261243,663278,55.84269803868707,-4.217535861487287
EERR / Baltic St,Toucan,Yes,261378,663393,55.84376935353354,-4.215440460182713
EERR / Sports Arena / Nuneaton St Link,Intersection,Yes,261661,663656,55.846211889077026,-4.211058684145173
Gallowgate/Westmuir St/Duke St/Tollcross Rd (P'Head X),Intersection,Yes,262540,664188,55.85123971796765,-4.197300944768586
Aikenhead Rd / Hangingshaw Pl,Puffin,Yes,259343,661662,55.827639184222,-4.247015754621332
Waterloo St / Pitt St,Toucan,Yes,258265,665399,55.8608740878599,-4.2661619661256935
Sauchiehall St / Pitt St / Scott St,Intersection,Yes,258376,665916,55.86554826994653,-4.264660185643274
Waterloo St / Blythswood St,Intersection,Yes,258433,665365,55.86061821815498,-4.263462321696975
Gorbals St / Adelphi St,Toucan,Yes,259137,664515,55.853193246479826,-4.25178229437909
Crown St / Adelphi St,Toucan,Yes,259382,664385,55.85209763625262,-4.247804530445728
Ballater St / Adelphi St,Toucan,Yes,259965,663797,55.84698824765773,-4.238196112803549
Edinburgh Rd /  Easterhouse Rd,Intersection,Yes,267938,664358,55.85427507743413,-4.111225462052438
Menock Rd / Kingsbridge Dr,Intersection,Yes,259477,660682,55.81887974995577,-4.244371547237252
Cathcart Rd / Letherby Dr,Puffin,Yes,258656,661332,55.824475717421976,-4.257801749932464
Cathcart Rd / First Bus Depot,Intersection,Yes,258903,663543,55.84439826428339,-4.255011457906058
