time,timestamp,recordtime,lat,long,alt,speed,course,verticalAccuracy,horizontalAccuracy,locTimeStamp,accelerationX,accelerationY,accelerationZ,HeadingX,HeadingY,HeadingZ,TrueHeading,MagneticHeading,HeadingAccuracy,RotationX,RotationY,RotationZ,DeviceOrientation
2014-05-27 19:42:39.500,1,0.2,55.87233,-4.279863,25,8.41,94.57031,48,30,1401216159,-0.2443085,-0.3721771,-0.898407,-300.0501,93.76426,-102.0031,30.29939,33.69726,-1,0.1580733,0.04454829,0.1836345,5
2014-05-27 19:42:39.693,2,0.4,55.87233,-4.279863,25,8.41,94.57031,48,30,1401216159,-0.08491516,-0.513382,-0.8309326,-296.6498,91.47069,-104.3951,29.29939,32.69726,-1,0.4909343,-0.04985651,-0.2045779,1
2014-05-27 19:42:39.889,3,0.6,55.87233,-4.279863,25,8.41,94.57031,48,30,1401216159,0.2064362,-0.4766388,-0.7078247,-290.6718,89.2317,-106.6163,68.85878,72.25665,-1,0.9866309,-0.09869728,-0.7321741,1
2014-05-27 19:42:40.090,4,0.8,55.87233,-4.279863,25,8.41,94.57031,48,30,1401216159,0.4436493,-0.4220276,-0.818634,-288.0941,90.70616,-108.6096,70.85878,74.25665,-1,1.286263,-1.066607,-0.4469506,1
2014-05-27 19:42:40.304,5,1,55.87206,-4.279607,20,9.202475,93.51562,24,30,1401216160,0.4110718,-0.3674011,-0.9354248,-288.0941,90.70616,-108.6096,70.85878,74.25665,-1,1.211718,0.5998967,0.5632666,1
2014-05-27 19:42:40.489,6,1.2,55.87206,-4.279607,20,9.202475,93.51562,24,30,1401216160,0.3345032,-0.5244751,-0.9812775,-294.072,87.15657,-104.9077,89.60732,93.00519,-1,0.4945522,0.2597895,0.401949,5
2014-05-27 19:42:40.690,7,1.4,55.87206,-4.279607,20,9.202475,93.51562,24,30,1401216160,0.1381989,-0.3664398,-0.9306488,-295.4979,87.81187,-103.1991,87.73442,91.13229,-1,-0.5353143,-0.2102968,-0.3544699,5
2014-05-27 19:42:40.892,8,1.6,55.87206,-4.279607,20,9.202475,93.51562,24,30,1401216160,0.1079102,-0.352356,-1.190643,-296.4302,88.08492,-104.509,67.66829,71.06616,-1,-0.6805607,0.5421088,-0.05453542,5
2014-05-27 19:42:41.089,9,1.8,55.87206,-4.279607,20,9.202475,93.51562,24,30,1401216160,0.0736084,-0.4068909,-0.8452148,-295.5527,88.74022,-107.0149,66.94261,70.34048,-1,-0.6931124,-0.1054537,0.2795241,5
2014-05-27 19:42:41.370,10,2,55.87206,-4.279607,20,9.202475,93.51562,24,30,1401216160,0.06109619,-0.3632965,-0.7866974,-295.9915,93.32741,-107.4705,66.94261,70.34048,-1,-1.554092,0.8131454,0.4704948,5
2014-05-27 19:42:41.495,11,2.2,55.8721,-4.279467,22,9.264939,90.35156,24,30,1401216161,0.2957611,0.1237793,-1.230728,-5.474274,10.94189,-37.01724,76.33652,79.7344,10,-2.611853,3.129184,0.4890192,5
2014-05-27 19:42:41.689,12,2.4,55.8721,-4.279467,22,9.264939,90.35156,24,30,1401216161,0.6970367,0.1844025,-0.1330872,-2.403015,12.25251,-32.91663,71.14723,74.5451,10,-3.160094,1.16959,0.9520439,5
2014-05-27 19:42:41.890,13,2.6,55.8721,-4.279467,22,9.264939,90.35156,24,30,1401216161,0.6921082,-0.113739,-0.7457581,0.06488037,19.07868,-23.97499,50.12862,53.52649,10,-0.5661423,-0.9671408,0.060066,5
2014-05-27 19:42:42.093,14,2.8,55.8721,-4.279467,22,9.264939,90.35156,24,30,1401216161,0.6291504,-0.2721405,-0.7314301,6.317047,15.91133,-23.29156,37.29236,40.69023,10,-0.2916289,0.7176031,1.765251,5
2014-05-27 19:42:42.289,15,3,55.87191,-4.279349,17,9.269618,113.9062,24,10,1401216162,0.5138702,-0.3644104,-0.422699,9.881897,11.37878,-19.93134,25.52751,28.92538,15,-1.59166,-3.825737,-1.487512,5
2014-05-27 19:42:42.490,16,3.2,55.87191,-4.279349,17,9.269618,113.9062,24,10,1401216162,0.5477142,-0.2462921,-0.6338501,8.126892,11.92488,-21.07038,24.72288,28.12075,15,-0.1740155,-2.190923,0.4631157,5
2014-05-27 19:42:42.696,17,3.4,55.87191,-4.279349,17,9.269618,113.9062,24,10,1401216162,0.3956909,-0.2128754,-0.9659119,3.95871,11.26957,-22.77898,27.37694,30.77481,15,0.03038081,0.539259,0.04183933,5
2014-05-27 19:42:42.890,18,3.6,55.87191,-4.279349,17,9.269618,113.9062,24,10,1401216162,0.5114136,-0.2068481,-1.227097,3.081268,11.48801,-24.14585,30.3436,33.74147,15,0.2102678,-1.016769,0.24936,5
2014-05-27 19:42:43.090,19,3.8,55.87191,-4.279349,17,9.269618,113.9062,24,10,1401216162,0.3609467,-0.09541321,-0.9111328,-2.677307,14.60072,-21.81076,31.82756,35.22544,15,-0.3461478,-1.483771,0.2551079,5
2014-05-27 19:42:43.293,20,4,55.87189,-4.279225,19,8.752769,107.9297,16,10,1401216163,0.164505,0.08688354,-1.472687,-10.02634,28.3623,-6.319519,31.48206,34.87993,15,0.4756534,-1.295584,0.2500945,5
2014-05-27 19:42:43.489,21,4.2,55.87189,-4.279225,19,8.752769,107.9297,16,10,1401216163,-0.05194092,0.04008484,-1.24559,3.136108,34.58775,-6.66124,29.64579,33.04366,16,-0.8963002,1.021758,0.5328946,5
2014-05-27 19:42:43.690,22,4.4,55.87189,-4.279225,19,8.752769,107.9297,16,10,1401216163,-0.03083801,-0.2002258,-0.8559875,2.368378,37.09977,-2.788414,26.1473,29.54517,16,-0.002814429,-0.1071315,0.9506302,5
2014-05-27 19:42:43.899,23,4.6,55.87189,-4.279225,19,8.752769,107.9297,16,10,1401216163,-0.06297302,-0.07435608,-1.096909,-15.78488,34.09623,-1.478493,23.1574,26.55527,16,-0.02126294,-0.06638488,-0.05671548,5
2014-05-27 19:42:44.090,24,4.8,55.87189,-4.279225,19,8.752769,107.9297,16,10,1401216163,-0.04005432,-0.0769043,-0.9559784,-19.62393,33.33172,-2.161926,23.49628,26.89416,16,0.0003336941,-0.08942788,-0.08157049,5
2014-05-27 19:42:44.290,25,5,55.87179,-4.279028,19,8.7133,113.9062,16,10,1401216164,-0.09490967,-0.09161377,-1.040436,-19.62399,34.31467,-2.275833,24.18613,27.58401,16,0.008130897,0.04541915,-0.06238428,5
2014-05-27 19:42:44.493,26,5.2,55.87179,-4.279028,19,8.7133,113.9062,16,10,1401216164,0.02827454,0.04954529,-0.9975586,-18.5271,35.40684,-2.617554,24.80686,28.20473,15,-0.02787051,-0.0184581,-0.0789321,5
2014-05-27 19:42:44.690,27,5.4,55.87179,-4.279028,19,8.7133,113.9062,16,10,1401216164,-0.08782959,0.03479004,-1.003571,-18.74649,33.55013,-3.984428,23.57935,26.97722,20,0.01307053,-0.0577107,-0.1368455,5
2014-05-27 19:42:44.890,28,5.6,55.87179,-4.279028,19,8.7133,113.9062,16,10,1401216164,-0.1174164,-0.03282166,-0.9998627,-21.65314,33.71397,-4.497002,23.57935,26.97722,20,0.05562012,0.009785785,-0.06308922,5
2014-05-27 19:42:45.093,29,5.8,55.87179,-4.279028,19,8.7133,113.9062,16,10,1401216164,-0.1453857,0.03639221,-1.349472,-21.21439,33.71398,-1.307617,23.57935,26.97722,20,-0.0743978,-0.0743464,-0.1097893,5
2014-05-27 19:42:45.289,30,6,55.87179,-4.278896,28,9.587705,110.7422,12,10,1401216165,-0.09133911,0.1331787,-0.9697418,-21.21439,34.58772,-2.6745,23.57935,26.97722,20,0.1122509,-0.08456229,-0.169393,5
2014-05-27 19:42:45.490,31,6.2,55.87179,-4.278896,28,9.587705,110.7422,12,10,1401216165,-0.1426849,-0.06536865,-1.067963,-20.94012,33.44093,-1.02285,24.57935,27.97722,20,-0.05895386,-0.04233574,-0.08591251,5
2014-05-27 19:42:45.697,32,6.4,55.87179,-4.278896,28,9.587705,110.7422,12,10,1401216165,-0.1290741,0.08100891,-1.19809,-20.7756,31.31115,-2.674492,25.57935,28.97722,20,0.03106364,-0.02191542,-0.01753851,5
2014-05-27 19:42:45.890,33,6.6,55.87179,-4.278896,28,9.587705,110.7422,12,10,1401216165,-0.0300293,0.0300293,-0.9504089,-23.24356,31.03812,-4.326141,26.57935,29.97722,20,-0.03161492,-0.0389924,-0.07562526,5
2014-05-27 19:42:46.107,34,6.8,55.87179,-4.278896,28,9.587705,110.7422,12,10,1401216165,-0.1068726,-0.08929443,-0.9718781,-23.51779,32.18491,-4.26918,26.57935,29.97722,20,-0.009791112,0.0432223,-0.06070622,5
2014-05-27 19:42:46.313,35,7,55.87178,-4.278748,26,9.654772,114.6094,8,5,1401216166,-0.1331482,-0.0871582,-1.035263,-25.54703,30.49201,-2.047997,27.57935,30.97722,20,-0.02718821,-0.142248,0.1126333,5
2014-05-27 19:42:46.490,36,7.2,55.87178,-4.278748,26,9.654772,114.6094,8,5,1401216166,-0.06112671,-0.1599426,-0.9598846,-28.728,30.05513,-0.4533157,31.57935,34.97722,20,0.01850737,-0.01476723,0.04364362,5
2014-05-27 19:42:46.689,37,7.4,55.87178,-4.278748,26,9.654772,114.6094,8,5,1401216166,-0.03387451,-0.1112213,-0.919342,-29.76996,27.48848,2.22348,33.57935,36.97722,20,-0.02720073,0.05729152,0.01194348,5
2014-05-27 19:42:46.893,38,7.6,55.87178,-4.278748,26,9.654772,114.6094,8,5,1401216166,-0.09130859,-0.08947754,-1.018768,-28.28918,26.56015,1.938721,38.57935,41.97722,25,0.03447462,-0.01156744,0.003533216,5
2014-05-27 19:42:47.090,39,7.8,55.87178,-4.278748,26,9.654772,114.6094,8,5,1401216166,-0.1516266,-0.06544495,-1.062225,-29.27634,26.99699,1.027473,41.57935,44.97722,25,-0.01348891,-0.03301388,0.01455444,5
2014-05-27 19:42:47.290,40,8,55.87178,-4.278748,26,9.654772,114.6094,8,5,1401216166,-0.08447266,-0.2246094,-1.080856,-29.44089,27.81615,2.22348,41.57935,44.97722,25,0.02978453,0.009035307,0.008062188,5
2014-05-27 19:42:47.495,41,8.2,55.87172,-4.278628,27,9.306887,124.8047,8,10,1401216167,-0.09881592,-0.1360931,-1.06189,-29.16669,28.74451,2.05262,41.57935,44.97722,25,0.02262249,0.0239546,0.01713984,5
2014-05-27 19:42:47.689,42,8.400001,55.87172,-4.278628,27,9.306887,124.8047,8,10,1401216167,-0.07740784,-0.3498077,-0.9740143,-27.24719,28.36224,3.020844,41.57935,44.97722,25,0.006626477,-0.00213479,0.04673422,5
2014-05-27 19:42:47.889,43,8.6,55.87172,-4.278628,27,9.306887,124.8047,8,10,1401216167,-0.0125885,-0.2460785,-0.9664612,-27.19238,27.87077,1.938728,41.57935,44.97722,25,0.017016,-0.0215258,0.06682617,5
2014-05-27 19:42:48.095,44,8.8,55.87172,-4.278628,27,9.306887,124.8047,8,10,1401216167,0.2297211,-0.2217255,-1.140884,-28.34412,27.48848,9.741302,41.57935,44.97722,25,-0.04319168,0.04639227,-0.1665253,5
2014-05-27 19:42:48.290,45,9,55.87169,-4.278498,30,9.254708,124.1016,12,10,1401216168,0.1820831,-0.1292419,-1.063614,-24.12112,25.79557,28.7067,41.57935,44.97722,25,-0.01962563,0.02463131,-0.1529429,5
2014-05-27 19:42:48.490,46,9.2,55.87169,-4.278498,30,9.254708,124.1016,12,10,1401216168,0.1779175,-0.1360168,-1.062668,-19.84329,24.70341,35.08545,42.57935,45.97722,25,-0.009120528,0.02550136,0.08459745,5
2014-05-27 19:42:48.693,47,9.400001,55.87169,-4.278498,30,9.254708,124.1016,12,10,1401216168,0.09159851,-0.1683197,-1.010071,-20.5563,23.77504,33.43381,42.57935,45.97722,25,0.01800057,-0.007717042,0.09363168,5
2014-05-27 19:42:48.890,48,9.6,55.87169,-4.278498,30,9.254708,124.1016,12,10,1401216168,-0.009048462,-0.1983795,-1.027527,-18.96585,25.24949,33.83247,42.57935,45.97722,25,0.0001323591,-0.005353753,0.09299705,5
2014-05-27 19:42:49.089,49,9.8,55.87169,-4.278498,30,9.254708,124.1016,12,10,1401216168,-0.06655884,-0.21492,-0.9695587,-19.95309,24.59417,34.06029,42.57935,45.97722,30,0.02020274,-0.01224282,0.1076508,5
2014-05-27 19:42:49.296,50,10,55.8717,-4.278443,30,9.027969,119.5312,12,10,1401216169,-0.1107635,-0.1898956,-1.033371,-18.47232,26.06862,33.3199,42.57935,45.97722,35,0.02259293,0.004919391,0.117076,5
2014-05-27 19:42:49.489,51,10.2,55.8717,-4.278443,30,9.027969,119.5312,12,10,1401216169,-0.06335449,-0.1485443,-0.9806366,-18.52722,26.23245,31.32655,42.57935,45.97722,35,0.01902163,0.0221077,0.1262879,5
2014-05-27 19:42:49.689,52,10.4,55.8717,-4.278443,30,9.027969,119.5312,12,10,1401216169,-0.02539062,-0.05207825,-1.129715,-17.59479,25.74097,30.13052,41.57935,44.97722,35,0.02750193,0.04148752,0.125473,5
2014-05-27 19:42:49.893,53,10.6,55.8717,-4.278443,30,9.027969,119.5312,12,10,1401216169,-0.1080933,-0.0851593,-1.061325,-17.97867,24.48495,29.95966,40.57935,43.97722,35,0.05716715,-0.01126277,0.1089768,5
2014-05-27 19:42:50.090,54,10.8,55.8717,-4.278443,30,9.027969,119.5312,12,10,1401216169,-0.1458435,-0.2143402,-1.034882,-19.24011,23.99344,30.47224,39.57935,42.97722,35,0.005715144,-0.006390788,0.1269087,5
2014-05-27 19:42:50.292,55,11,55.8717,-4.278443,30,9.027969,119.5312,12,10,1401216169,-0.0916748,-0.07359314,-1.081711,-17.7045,25.30407,30.58615,42.57935,45.97722,35,0.02498844,0.002614958,0.1148312,5
2014-05-27 19:42:50.495,56,11.2,55.87168,-4.278357,30,6.331473,119.5312,12,10,1401216170,-0.1406555,-0.1426697,-0.9830627,-17.04642,25.30407,29.33318,42.57935,45.97722,35,0.01043187,-0.01669775,0.1258919,5
2014-05-27 19:42:50.690,57,11.4,55.87168,-4.278357,30,6.331473,119.5312,12,10,1401216170,-0.2355194,-0.1140289,-1.008545,-16.16891,25.19484,30.58615,42.57935,45.97722,35,-0.03134727,0.001405616,0.03143143,5
2014-05-27 19:42:50.890,58,11.6,55.87168,-4.278357,30,6.331473,119.5312,12,10,1401216170,-0.2029266,-0.1782379,-1.018433,-24.55997,15.85664,18.34123,42.57935,45.97722,35,-0.002234925,-0.002836533,0.7416267,5
2014-05-27 19:42:51.100,59,11.8,55.87168,-4.278357,30,6.331473,119.5312,12,10,1401216170,-0.3308258,-0.1360626,-0.9846497,-26.26016,8.921219,-1.991035,40.57935,43.97722,36,-0.02867798,0.03033713,0.1304105,5
2014-05-27 19:42:51.291,60,12,55.87176,-4.278312,29,6.135201,98.4375,12,10,1401216171,-0.3018036,-0.06562805,-1.006073,-26.04077,10.45027,-1.193687,38.57935,41.97722,31,-0.01183242,0.01417894,0.1077262,5
2014-05-27 19:42:51.489,61,12.2,55.87176,-4.278312,29,6.135201,98.4375,12,10,1401216171,-0.315506,0.005447388,-0.9988098,-26.53439,9.958778,-2.275795,37.57935,40.97722,31,0.111604,-0.01635927,0.03651167,5
2014-05-27 19:42:51.691,62,12.4,55.87176,-4.278312,29,6.135201,98.4375,12,10,1401216171,-0.1819153,-0.1354523,-0.8590851,-26.26013,10.12261,-2.674469,36.57935,39.97722,31,-0.01269662,-0.01913694,0.05879194,5
2014-05-27 19:42:51.889,63,12.6,55.87176,-4.278312,29,6.135201,98.4375,12,10,1401216171,-0.1763153,-0.02455139,-1.094299,-25.93106,8.811981,-2.788383,35.57935,38.97722,31,0.09950502,-0.05059314,0.03251294,5
2014-05-27 19:42:52.090,64,12.8,55.87176,-4.278312,29,6.135201,98.4375,12,10,1401216171,-0.1529999,-0.1013336,-1.101379,-24.99875,9.631096,-2.275803,35.57935,38.97722,31,0.02099689,0.09353954,-0.01182364,5
2014-05-27 19:42:52.290,65,13,55.87179,-4.278242,32,4.764705,87.53906,8,10,1401216172,-0.1948853,-0.05541992,-1.205536,-23.57278,8.102043,-2.047974,34.57935,37.97722,31,-0.03230308,-0.02615277,-0.00586721,5
2014-05-27 19:42:52.490,66,13.2,55.87179,-4.278242,32,4.764705,87.53906,8,10,1401216172,-0.1812439,-0.002746582,-1.001175,-24.06638,8.921181,-2.674461,34.57935,37.97722,31,0.03582405,-0.08834264,-0.0547205,5
2014-05-27 19:42:52.690,67,13.4,55.87179,-4.278242,32,4.764705,87.53906,8,10,1401216172,-0.2245026,0.004592896,-0.9853058,-25.7117,8.484306,-2.446655,34.57935,37.97722,31,-0.04304254,-0.0459856,-0.124878,5
2014-05-27 19:42:52.891,68,13.6,55.87179,-4.278242,32,4.764705,87.53906,8,10,1401216172,-0.1263275,0.05271912,-1.125214,-25.05353,8.702736,-5.294304,34.57935,37.97722,31,-0.01118608,-0.02352796,-0.1887894,5
2014-05-27 19:42:53.090,69,13.8,55.87179,-4.278242,32,4.764705,87.53906,8,10,1401216172,-0.2392883,0.1565247,-1.109131,-26.53433,7.119072,-6.034683,34.57935,37.97722,31,-0.05764546,-0.1011953,-0.2382946,5
2014-05-27 19:42:53.290,70,14,55.87182,-4.278149,33,4.702875,88.24219,8,5,1401216173,-0.2539978,0.2109528,-1.01828,-29.66046,6.518349,-2.104919,35.57935,38.97722,31,-0.03850665,-0.1154606,-0.3597105,5
2014-05-27 19:42:53.492,71,14.2,55.87182,-4.278149,33,4.702875,88.24219,8,5,1401216173,-0.1556244,0.1959076,-1.110733,-30.70248,9.085014,-2.047966,39.57935,42.97722,31,-0.01214828,-0.02558712,-0.4271532,5
2014-05-27 19:42:53.690,72,14.4,55.87182,-4.278149,33,4.702875,88.24219,8,5,1401216173,-0.2489166,0.2197113,-1.012344,-31.41544,8.811951,-2.902267,44.57935,47.97722,31,-0.03050012,-0.08373591,-0.4186423,5
2014-05-27 19:42:53.890,73,14.6,55.87182,-4.278149,33,4.702875,88.24219,8,5,1401216173,-0.1935577,0.1077728,-1.003906,-30.81223,8.320473,-1.706253,48.57935,51.97722,30,-0.06965924,-0.06072833,-0.4234802,5
2014-05-27 19:42:54.095,74,14.8,55.87182,-4.278149,33,4.702875,88.24219,8,5,1401216173,-0.1723175,0.2089691,-1.142517,-32.29294,7.610558,-0.9658585,53.57935,56.97722,30,-0.06011127,-0.05504887,-0.4208005,5
2014-05-27 19:42:54.290,75,15,55.87181,-4.278053,32,5.436636,100.8984,6,5,1401216174,-0.08470154,0.2128448,-0.8776398,-32.95108,5.64463,-0.8519669,58.57935,61.97722,30,-0.06146256,-0.05384219,-0.4057326,5
2014-05-27 19:42:54.489,76,15.2,55.87181,-4.278053,32,5.436636,100.8984,6,5,1401216174,-0.2628632,0.130249,-0.9876251,-33.22528,6.46376,-0.9089203,62.57935,65.97722,30,-0.04745753,-0.0629582,-0.3831628,5
2014-05-27 19:42:54.693,77,15.4,55.87181,-4.278053,32,5.436636,100.8984,6,5,1401216174,-0.1815643,0.17659,-0.9548798,-34.59644,5.753838,-0.9658585,73.57935,76.97722,30,-0.07522152,-0.03409033,-0.336427,5
2014-05-27 19:42:54.889,78,15.6,55.87181,-4.278053,32,5.436636,100.8984,6,5,1401216174,-0.1990051,-0.007217407,-1.059464,-37.06448,5.699234,-1.022812,78.57935,81.97722,30,-0.0593584,-0.05562411,-0.2731296,5
2014-05-27 19:42:55.090,79,15.8,55.87181,-4.278053,32,5.436636,100.8984,6,5,1401216174,-0.2902222,0.1604004,-1.163132,-36.9548,4.607056,-0.2254639,78.57935,81.97722,30,-0.04273441,-0.04994892,-0.2632207,5
2014-05-27 19:42:55.305,80,16,55.87179,-4.277964,33,5.573294,113.9062,6,5,1401216175,-0.2787628,0.07614136,-1.123245,-37.33875,3.569473,-0.8519363,81.57935,84.97722,30,-0.05904601,-0.02024082,-0.2811758,5
2014-05-27 19:42:55.490,81,16.2,55.87179,-4.277964,33,5.573294,113.9062,6,5,1401216175,-0.1714172,0.03785706,-0.9884338,-38.76468,3.569473,-0.7380371,84.57935,87.97722,30,0.005750564,-0.06376407,-0.2336141,5
2014-05-27 19:42:55.689,82,16.4,55.87179,-4.277964,33,5.573294,113.9062,6,5,1401216175,-0.1851196,-0.09065247,-1.043091,-39.20343,3.023369,-0.05461884,84.57935,87.97722,30,-0.01298904,-0.03704537,-0.1412192,5
2014-05-27 19:42:55.891,83,16.6,55.87179,-4.277964,33,5.573294,113.9062,6,5,1401216175,-0.1192017,-0.09977722,-1.068344,-38.76468,2.25885,0.7427292,84.57935,87.97722,20,-0.02174152,0.03870479,-0.06114431,5
2014-05-27 19:42:56.090,84,16.8,55.87179,-4.277964,33,5.573294,113.9062,6,5,1401216175,-0.09960938,-0.1782227,-1.03421,-39.14859,2.531891,-0.2254791,84.57935,87.97722,20,0.02392105,-0.01616299,-0.01545592,5
2014-05-27 19:42:56.290,85,17,55.87175,-4.277873,34,5.579696,122.6953,6,5,1401216176,-0.1378174,-0.06530762,-1.065903,-39.75186,2.914154,0.5149078,84.57935,87.97722,20,-0.06414996,0.03226127,-0.004550277,5
2014-05-27 19:42:56.491,86,17.2,55.87175,-4.277873,34,5.579696,122.6953,6,5,1401216176,-0.100769,-0.0428009,-1.068283,-40.19061,1.931183,0.05928802,84.57935,87.97722,20,0.0009403622,-0.01136611,0.0162831,5
2014-05-27 19:42:56.690,87,17.4,55.87175,-4.277873,34,5.579696,122.6953,6,5,1401216176,-0.08731079,-0.1663361,-0.8778229,-41.12296,1.985779,1.483116,84.57935,87.97722,20,0.004298875,-0.02160889,0.03033101,5
2014-05-27 19:42:56.889,88,17.6,55.87175,-4.277873,34,5.579696,122.6953,6,5,1401216176,-0.0827179,-0.1508331,-0.9986572,-42.16504,2.04039,3.134735,84.57935,87.97722,20,-0.009696836,-0.01707646,0.004263721,5
2014-05-27 19:42:57.091,89,17.8,55.87175,-4.277873,34,5.579696,122.6953,6,5,1401216176,-0.01893616,-0.05238342,-1.050995,-39.75192,-0.3624268,0.8566132,84.57935,87.97722,20,-0.02325872,0.009474995,0.05964123,5
2014-05-27 19:42:57.289,90,18,55.87175,-4.277873,34,5.579696,122.6953,6,5,1401216176,-0.1525116,-0.1573792,-1.00383,-42.21994,-1.618439,-0.6811218,84.57935,87.97722,20,0.0162309,-0.03425997,0.02259159,5
2014-05-27 19:42:57.489,91,18.2,55.87171,-4.277767,35,5.953285,126.2109,6,5,1401216177,-0.1460266,-0.008026123,-1.114471,-42.11023,1.43969,0.571846,84.57935,87.97722,20,-0.03934155,0.0001728392,-0.001408812,5
2014-05-27 19:42:57.693,92,18.4,55.87171,-4.277767,35,5.953285,126.2109,6,5,1401216177,-0.1598663,-0.08079529,-1.17627,-42.16504,1.93116,0.6288147,84.57935,87.97722,20,0.04546708,-0.01056316,-0.01932177,5
2014-05-27 19:42:57.892,93,18.6,55.87171,-4.277767,35,5.953285,126.2109,6,5,1401216177,-0.2310944,-0.08343506,-1.040024,-41.67148,2.422646,2.394363,84.57935,87.97722,20,-0.01917796,-0.02850461,-0.007727162,5
2014-05-27 19:42:58.090,94,18.8,55.87171,-4.277767,35,5.953285,126.2109,6,5,1401216177,-0.2479706,-0.1450806,-1.024338,-40.9585,2.804909,1.881775,84.57935,87.97722,20,0.001533714,0.01361248,-0.02316551,5
2014-05-27 19:42:58.297,95,19,55.87171,-4.277767,35,5.953285,126.2109,6,5,1401216177,-0.1966248,-0.02726746,-1.171326,-41.34244,1.985771,0.7996674,84.57935,87.97722,20,0.001163535,-0.03091025,-0.01514194,5
2014-05-27 19:42:58.490,96,19.2,55.87171,-4.277767,35,5.953285,126.2109,6,5,1401216177,-0.2329407,-0.1813965,-0.8834076,-42.76834,1.439674,1.027473,84.57935,87.97722,20,-0.01056263,-0.0080273,-0.02016013,5
2014-05-27 19:42:58.690,97,19.4,55.87171,-4.277767,35,5.953285,126.2109,6,5,1401216177,-0.1556091,-0.1640472,-1.116852,-42.11017,1.548882,1.710915,84.57935,87.97722,20,-0.01638989,0.009125854,-0.02265524,5
2014-05-27 19:42:58.893,98,19.6,55.87171,-4.277767,35,5.953285,126.2109,6,5,1401216177,-0.1680298,-0.1971893,-1.026535,-41.1778,0.402092,0.6288147,84.57935,87.97722,20,0.02401452,-0.00131134,-0.0154189,5
2014-05-27 19:42:59.488,99,19.8,55.87171,-4.277767,35,5.953285,126.2109,6,5,1401216177,-0.1601257,-0.2214813,-1.07048,-42.00049,0.3474808,-0.1115723,84.57935,87.97722,20,0.01782427,-0.02753815,-0.009887518,5
2014-05-27 20:01:24.370,100,20,55.87171,-4.277767,35,5.953285,126.2109,6,5,1401216177,0.1771545,-0.4562683,-0.9019928,-42.00049,0.3474808,-0.1115723,84.57935,87.97722,20,0.01782427,-0.02753815,-0.009887518,5
2014-05-27 20:01:24.399,101,20.2,55.87171,-4.277767,35,5.953285,126.2109,6,5,1401216177,0.2581024,-0.4906921,-0.9858246,-42.00049,0.3474808,-0.1115723,84.57935,87.97722,20,0.01782427,-0.02753815,-0.009887518,5
2014-05-27 20:01:24.664,102,20.4,55.87171,-4.277767,35,5.953285,126.2109,6,5,1401216177,0.100174,-0.3854828,-0.9784241,-42.00049,0.3474808,-0.1115723,84.57935,87.97722,20,0.01782427,-0.02753815,-0.009887518,5
2014-05-27 20:01:24.803,103,20.6,55.87171,-4.277767,35,5.953285,126.2109,6,5,1401216177,-0.1109314,-0.3417358,-1.006119,-42.00049,0.3474808,-0.1115723,84.57935,87.97722,20,0.9842293,1.257625,0.8042374,5
2014-05-27 20:01:25.020,104,20.8,55.87171,-4.277767,35,5.953285,126.2109,6,5,1401216177,-0.07580566,-0.4859619,-0.9104614,-42.00049,0.3474808,-0.1115723,84.57935,87.97722,20,0.9491711,1.017921,0.8175508,1
2014-05-27 20:01:25.202,105,21,55.87171,-4.277767,35,5.953285,126.2109,6,5,1401216177,-0.01046753,-0.3843994,-0.9333191,-42.00049,0.3474808,-0.1115723,84.57935,87.97722,20,-0.411521,0.0254007,-0.4134414,1
2014-05-27 20:01:25.399,106,21.2,55.87171,-4.277767,35,5.953285,126.2109,6,5,1401216177,0.04107666,-0.3273926,-0.9768524,-42.00049,0.3474808,-0.1115723,84.57935,87.97722,20,-0.1289966,-0.1172819,-0.05022722,1
2014-05-27 20:01:25.599,107,21.4,55.87171,-4.277767,35,5.953285,126.2109,6,5,1401216177,0.01324463,-0.332428,-0.9665222,-42.00049,0.3474808,-0.1115723,84.57935,87.97722,20,0.2532983,0.09185243,0.1197243,5
2014-05-27 20:01:25.800,108,21.6,55.87171,-4.277767,35,5.953285,126.2109,6,5,1401216177,0.03970337,-0.3761292,-0.9285126,-22.4213,-25.8102,-5.977776,129.8918,133.2824,25,0.06876548,0.4440853,0.291786,5
2014-05-27 20:01:25.999,109,21.8,55.87171,-4.277767,35,5.953285,126.2109,6,5,1401216177,0.06645203,-0.3881989,-0.9083099,-21.65347,-24.39037,-6.775116,129.8918,133.2824,25,-0.04571449,0.1648041,0.02198759,5
